[19 Sep 2019]  [17:21:55]  ** GUE startup log begins **
[17:21:55]  Initialising windowed graphics mode
[17:21:55]  Initialising encryption system
[17:21:55]  Loading splash screen
[17:22:04]  Creating media dialogs
[17:22:08]  Loading game interface settings
[17:22:08]  Loading emitter configurations
[17:22:08]  Loading damage types
[17:22:08]  Loading attributes
[17:22:08]  Loading factions
[17:22:08]  Loading animations
[17:22:08]  Loading projectiles
[17:22:08]  Loading items
[17:22:08]  Loading actors
[17:22:08]  Loading abilities
[17:22:08]  Loading server-side zones
[17:22:08]  Loading environment settings
[17:22:08]  Loading suns/moons
[17:22:08]  Creating main window
[17:22:08]  Creating project tab
[17:22:08]  Creating media tab
[17:22:08]  Creating particles tab
[17:22:09]  Creating combat tab
[17:22:09]  Creating projectiles tab
[17:22:09]  Creating factions tab
[17:22:10]  Creating animations tab
[17:22:10]  Creating attributes tab
[17:22:10]  Creating actors tab
[17:22:12]  Creating items tab
[17:22:12]  Creating seasons tab
[17:22:13]  Creating zones tab
[17:22:14]  Creating abilities tab
[17:22:14]  Creating interface tab
[17:22:15]  Creating host options
[17:22:15]  Creating game options
[17:22:15]  Creating money options
[17:22:15]  Creating gubbin remapping options
[17:22:15]  Initialising gadgets
[17:22:16]  Creating skyspheres
[17:22:16]  Performing final initialisation
[17:22:16]  ** GUE loading complete **
