Anim ID: 1
Anim Set: Player (Male)
Bow~~~~~~~~~~~~~~~~~~~~~~~~~~~~~1510-1524
Ranging~~~~~~~~~~~~~~~~~~~~~~~~~~~~~0-0
Heal~~~~~~~~~~~~~~~~~~~~~~~~~~~~~709-797
Infernal~~~~~~~~~~~~~~~~~~~~~~~~~~~~~1426-1459
Mining~~~~~~~~~~~~~~~~~~~~~~~~~~~~~1460-1509
Fishing Loop~~~~~~~~~~~~~~~~~~~~~~~~~~~~~682-682
Fishing~~~~~~~~~~~~~~~~~~~~~~~~~~~~~651-682
Picking1~~~~~~~~~~~~~~~~~~~~~~~~~~~~~1361-1390
Fart~~~~~~~~~~~~~~~~~~~~~~~~~~~~~511-530
No~~~~~~~~~~~~~~~~~~~~~~~~~~~~~1270-1320
Victory~~~~~~~~~~~~~~~~~~~~~~~~~~~~~1231-1270
Dazed~~~~~~~~~~~~~~~~~~~~~~~~~~~~~1321-1360
Pray~~~~~~~~~~~~~~~~~~~~~~~~~~~~~1515-1575
Worship~~~~~~~~~~~~~~~~~~~~~~~~~~~~~1425-1515
Salute~~~~~~~~~~~~~~~~~~~~~~~~~~~~~1340-1370
Wave~~~~~~~~~~~~~~~~~~~~~~~~~~~~~1176-1200
Sitting Ride~~~~~~~~~~~~~~~~~~~~~~~~~~~~~142-180
Idle Loop~~~~~~~~~~~~~~~~~~~~~~~~~~~~~222-455
Death Backwards~~~~~~~~~~~~~~~~~~~~~~~~~~~~~528-560
Sword Swipe~~~~~~~~~~~~~~~~~~~~~~~~~~~~~561-628
Bow~~~~~~~~~~~~~~~~~~~~~~~~~~~~~1370-1425
Drink~~~~~~~~~~~~~~~~~~~~~~~~~~~~~1201-1230
Stand ~~~~~~~~~~~~~~~~~~~~~~~~~~~~~1114-1174
Sit idle~~~~~~~~~~~~~~~~~~~~~~~~~~~~~1113-1113
Sit down~~~~~~~~~~~~~~~~~~~~~~~~~~~~~1047-1113
Look around~~~~~~~~~~~~~~~~~~~~~~~~~~~~~0-0
Yawn~~~~~~~~~~~~~~~~~~~~~~~~~~~~~0-0
Idle~~~~~~~~~~~~~~~~~~~~~~~~~~~~~1230-1235
Jump~~~~~~~~~~~~~~~~~~~~~~~~~~~~~32-55
Death 3~~~~~~~~~~~~~~~~~~~~~~~~~~~~~0-0
Death 2~~~~~~~~~~~~~~~~~~~~~~~~~~~~~933-959
Death 1~~~~~~~~~~~~~~~~~~~~~~~~~~~~~900-932
Hit 3~~~~~~~~~~~~~~~~~~~~~~~~~~~~~0-0
Hit 2~~~~~~~~~~~~~~~~~~~~~~~~~~~~~0-0
Hit 1~~~~~~~~~~~~~~~~~~~~~~~~~~~~~0-0
Shield parry~~~~~~~~~~~~~~~~~~~~~~~~~~~~~0-0
Staff parry~~~~~~~~~~~~~~~~~~~~~~~~~~~~~0-0
Two hand parry~~~~~~~~~~~~~~~~~~~~~~~~~~~~~0-0
Right hand parry~~~~~~~~~~~~~~~~~~~~~~~~~~~~~0-0
Default parry~~~~~~~~~~~~~~~~~~~~~~~~~~~~~0-0
Staff attack~~~~~~~~~~~~~~~~~~~~~~~~~~~~~538-650
Two hand attack~~~~~~~~~~~~~~~~~~~~~~~~~~~~~0-0
Right hand attack~~~~~~~~~~~~~~~~~~~~~~~~~~~~~0-0
Default attack~~~~~~~~~~~~~~~~~~~~~~~~~~~~~297-406
Ride run~~~~~~~~~~~~~~~~~~~~~~~~~~~~~1531-1539
Ride walk~~~~~~~~~~~~~~~~~~~~~~~~~~~~~1510-1530
Ride idle~~~~~~~~~~~~~~~~~~~~~~~~~~~~~1510-1510
Swim fast~~~~~~~~~~~~~~~~~~~~~~~~~~~~~56-78
Swim slow~~~~~~~~~~~~~~~~~~~~~~~~~~~~~56-78
Swim idle~~~~~~~~~~~~~~~~~~~~~~~~~~~~~56-78
Run~~~~~~~~~~~~~~~~~~~~~~~~~~~~~22-31
Walk~~~~~~~~~~~~~~~~~~~~~~~~~~~~~1-21


Anim ID: 2
Anim Set: Player (Female)
Infernal~~~~~~~~~~~~~~~~~~~~~~~~~~~~~1316-1360
Mining~~~~~~~~~~~~~~~~~~~~~~~~~~~~~1260-1315
Ranging~~~~~~~~~~~~~~~~~~~~~~~~~~~~~921-1045
Heal~~~~~~~~~~~~~~~~~~~~~~~~~~~~~712-798
Victory~~~~~~~~~~~~~~~~~~~~~~~~~~~~~1232-1259
No~~~~~~~~~~~~~~~~~~~~~~~~~~~~~1203-1231
Fart~~~~~~~~~~~~~~~~~~~~~~~~~~~~~514-532
Wave~~~~~~~~~~~~~~~~~~~~~~~~~~~~~1175-1203
Stand up~~~~~~~~~~~~~~~~~~~~~~~~~~~~~0-0
Sit idle~~~~~~~~~~~~~~~~~~~~~~~~~~~~~1098-1098
Sit down~~~~~~~~~~~~~~~~~~~~~~~~~~~~~1046-1098
Look around~~~~~~~~~~~~~~~~~~~~~~~~~~~~~0-0
Yawn~~~~~~~~~~~~~~~~~~~~~~~~~~~~~0-0
Idle~~~~~~~~~~~~~~~~~~~~~~~~~~~~~239-455
Jump~~~~~~~~~~~~~~~~~~~~~~~~~~~~~802-855
Death 3~~~~~~~~~~~~~~~~~~~~~~~~~~~~~0-0
Death 2~~~~~~~~~~~~~~~~~~~~~~~~~~~~~511-560
Death 1~~~~~~~~~~~~~~~~~~~~~~~~~~~~~457-510
Hit 3~~~~~~~~~~~~~~~~~~~~~~~~~~~~~0-0
Hit 2~~~~~~~~~~~~~~~~~~~~~~~~~~~~~0-0
Hit 1~~~~~~~~~~~~~~~~~~~~~~~~~~~~~0-0
Shield parry~~~~~~~~~~~~~~~~~~~~~~~~~~~~~0-0
Staff parry~~~~~~~~~~~~~~~~~~~~~~~~~~~~~0-0
Two hand parry~~~~~~~~~~~~~~~~~~~~~~~~~~~~~0-0
Right hand parry~~~~~~~~~~~~~~~~~~~~~~~~~~~~~0-0
Default parry~~~~~~~~~~~~~~~~~~~~~~~~~~~~~0-0
Staff attack~~~~~~~~~~~~~~~~~~~~~~~~~~~~~0-0
Two hand attack~~~~~~~~~~~~~~~~~~~~~~~~~~~~~512-537
Right hand attack~~~~~~~~~~~~~~~~~~~~~~~~~~~~~865-920
Default attack~~~~~~~~~~~~~~~~~~~~~~~~~~~~~629-708
Ride run~~~~~~~~~~~~~~~~~~~~~~~~~~~~~204-220
Ride walk~~~~~~~~~~~~~~~~~~~~~~~~~~~~~182-202
Ride idle~~~~~~~~~~~~~~~~~~~~~~~~~~~~~140-140
Swim fast~~~~~~~~~~~~~~~~~~~~~~~~~~~~~93-139
Swim slow~~~~~~~~~~~~~~~~~~~~~~~~~~~~~93-139
Swim idle~~~~~~~~~~~~~~~~~~~~~~~~~~~~~93-139
Run~~~~~~~~~~~~~~~~~~~~~~~~~~~~~68-91
Walk~~~~~~~~~~~~~~~~~~~~~~~~~~~~~3-39


Anim ID: 0
Anim Set: Barbarian (Male)
Wave~~~~~~~~~~~~~~~~~~~~~~~~~~~~~1181-1200
Stand up~~~~~~~~~~~~~~~~~~~~~~~~~~~~~0-0
Sit idle~~~~~~~~~~~~~~~~~~~~~~~~~~~~~1077-1077
Sit down~~~~~~~~~~~~~~~~~~~~~~~~~~~~~1004-1077
Look around~~~~~~~~~~~~~~~~~~~~~~~~~~~~~0-0
Yawn~~~~~~~~~~~~~~~~~~~~~~~~~~~~~0-0
Idle~~~~~~~~~~~~~~~~~~~~~~~~~~~~~257-414
Jump~~~~~~~~~~~~~~~~~~~~~~~~~~~~~802-865
Death 3~~~~~~~~~~~~~~~~~~~~~~~~~~~~~0-0
Death 2~~~~~~~~~~~~~~~~~~~~~~~~~~~~~517-565
Death 1~~~~~~~~~~~~~~~~~~~~~~~~~~~~~454-515
Hit 3~~~~~~~~~~~~~~~~~~~~~~~~~~~~~0-0
Hit 2~~~~~~~~~~~~~~~~~~~~~~~~~~~~~0-0
Hit 1~~~~~~~~~~~~~~~~~~~~~~~~~~~~~0-0
Shield parry~~~~~~~~~~~~~~~~~~~~~~~~~~~~~0-0
Staff parry~~~~~~~~~~~~~~~~~~~~~~~~~~~~~0-0
Two hand parry~~~~~~~~~~~~~~~~~~~~~~~~~~~~~0-0
Right hand parry~~~~~~~~~~~~~~~~~~~~~~~~~~~~~0-0
Default parry~~~~~~~~~~~~~~~~~~~~~~~~~~~~~0-0
Staff attack~~~~~~~~~~~~~~~~~~~~~~~~~~~~~0-0
Two hand attack~~~~~~~~~~~~~~~~~~~~~~~~~~~~~0-0
Right hand attack~~~~~~~~~~~~~~~~~~~~~~~~~~~~~868-917
Default attack~~~~~~~~~~~~~~~~~~~~~~~~~~~~~634-713
Ride run~~~~~~~~~~~~~~~~~~~~~~~~~~~~~208-223
Ride walk~~~~~~~~~~~~~~~~~~~~~~~~~~~~~185-205
Ride idle~~~~~~~~~~~~~~~~~~~~~~~~~~~~~141-141
Swim fast~~~~~~~~~~~~~~~~~~~~~~~~~~~~~93-139
Swim slow~~~~~~~~~~~~~~~~~~~~~~~~~~~~~93-139
Swim idle~~~~~~~~~~~~~~~~~~~~~~~~~~~~~93-139
Run~~~~~~~~~~~~~~~~~~~~~~~~~~~~~67-91
Walk~~~~~~~~~~~~~~~~~~~~~~~~~~~~~3-39


Anim ID: 3
Anim Set: Barbarian (Female)
Wave~~~~~~~~~~~~~~~~~~~~~~~~~~~~~1141-1160
Stand up~~~~~~~~~~~~~~~~~~~~~~~~~~~~~0-0
Sit idle~~~~~~~~~~~~~~~~~~~~~~~~~~~~~1038-1038
Sit down~~~~~~~~~~~~~~~~~~~~~~~~~~~~~1004-1038
Look around~~~~~~~~~~~~~~~~~~~~~~~~~~~~~0-0
Yawn~~~~~~~~~~~~~~~~~~~~~~~~~~~~~0-0
Idle~~~~~~~~~~~~~~~~~~~~~~~~~~~~~251-414
Jump~~~~~~~~~~~~~~~~~~~~~~~~~~~~~757-822
Death 3~~~~~~~~~~~~~~~~~~~~~~~~~~~~~0-0
Death 2~~~~~~~~~~~~~~~~~~~~~~~~~~~~~471-519
Death 1~~~~~~~~~~~~~~~~~~~~~~~~~~~~~416-469
Hit 3~~~~~~~~~~~~~~~~~~~~~~~~~~~~~0-0
Hit 2~~~~~~~~~~~~~~~~~~~~~~~~~~~~~0-0
Hit 1~~~~~~~~~~~~~~~~~~~~~~~~~~~~~0-0
Shield parry~~~~~~~~~~~~~~~~~~~~~~~~~~~~~0-0
Staff parry~~~~~~~~~~~~~~~~~~~~~~~~~~~~~0-0
Two hand parry~~~~~~~~~~~~~~~~~~~~~~~~~~~~~0-0
Right hand parry~~~~~~~~~~~~~~~~~~~~~~~~~~~~~0-0
Default parry~~~~~~~~~~~~~~~~~~~~~~~~~~~~~0-0
Staff attack~~~~~~~~~~~~~~~~~~~~~~~~~~~~~0-0
Two hand attack~~~~~~~~~~~~~~~~~~~~~~~~~~~~~0-0
Right hand attack~~~~~~~~~~~~~~~~~~~~~~~~~~~~~824-879
Default attack~~~~~~~~~~~~~~~~~~~~~~~~~~~~~589-668
Ride run~~~~~~~~~~~~~~~~~~~~~~~~~~~~~206-221
Ride walk~~~~~~~~~~~~~~~~~~~~~~~~~~~~~185-204
Ride idle~~~~~~~~~~~~~~~~~~~~~~~~~~~~~140-140
Swim fast~~~~~~~~~~~~~~~~~~~~~~~~~~~~~93-139
Swim slow~~~~~~~~~~~~~~~~~~~~~~~~~~~~~93-139
Swim idle~~~~~~~~~~~~~~~~~~~~~~~~~~~~~93-139
Run~~~~~~~~~~~~~~~~~~~~~~~~~~~~~66-91
Walk~~~~~~~~~~~~~~~~~~~~~~~~~~~~~3-39


Anim ID: 4
Anim Set: Elf (Male)
Stand up~~~~~~~~~~~~~~~~~~~~~~~~~~~~~0-0
Sit idle~~~~~~~~~~~~~~~~~~~~~~~~~~~~~1082-1082
Sit down~~~~~~~~~~~~~~~~~~~~~~~~~~~~~1046-1082
Look around~~~~~~~~~~~~~~~~~~~~~~~~~~~~~0-0
Yawn~~~~~~~~~~~~~~~~~~~~~~~~~~~~~0-0
Idle~~~~~~~~~~~~~~~~~~~~~~~~~~~~~239-455
Jump~~~~~~~~~~~~~~~~~~~~~~~~~~~~~802-855
Death 3~~~~~~~~~~~~~~~~~~~~~~~~~~~~~0-0
Death 2~~~~~~~~~~~~~~~~~~~~~~~~~~~~~478-526
Death 1~~~~~~~~~~~~~~~~~~~~~~~~~~~~~424-476
Hit 3~~~~~~~~~~~~~~~~~~~~~~~~~~~~~0-0
Hit 2~~~~~~~~~~~~~~~~~~~~~~~~~~~~~0-0
Hit 1~~~~~~~~~~~~~~~~~~~~~~~~~~~~~0-0
Shield parry~~~~~~~~~~~~~~~~~~~~~~~~~~~~~0-0
Staff parry~~~~~~~~~~~~~~~~~~~~~~~~~~~~~0-0
Two hand parry~~~~~~~~~~~~~~~~~~~~~~~~~~~~~0-0
Right hand parry~~~~~~~~~~~~~~~~~~~~~~~~~~~~~0-0
Default parry~~~~~~~~~~~~~~~~~~~~~~~~~~~~~0-0
Staff attack~~~~~~~~~~~~~~~~~~~~~~~~~~~~~0-0
Two hand attack~~~~~~~~~~~~~~~~~~~~~~~~~~~~~0-0
Right hand attack~~~~~~~~~~~~~~~~~~~~~~~~~~~~~865-920
Default attack~~~~~~~~~~~~~~~~~~~~~~~~~~~~~631-708
Ride run~~~~~~~~~~~~~~~~~~~~~~~~~~~~~206-222
Ride walk~~~~~~~~~~~~~~~~~~~~~~~~~~~~~184-204
Ride idle~~~~~~~~~~~~~~~~~~~~~~~~~~~~~140-140
Swim fast~~~~~~~~~~~~~~~~~~~~~~~~~~~~~93-139
Swim slow~~~~~~~~~~~~~~~~~~~~~~~~~~~~~93-139
Swim idle~~~~~~~~~~~~~~~~~~~~~~~~~~~~~93-139
Run~~~~~~~~~~~~~~~~~~~~~~~~~~~~~67-91
Walk~~~~~~~~~~~~~~~~~~~~~~~~~~~~~3-39


Anim ID: 5
Anim Set: Elf (Female)
Stand up~~~~~~~~~~~~~~~~~~~~~~~~~~~~~0-0
Sit idle~~~~~~~~~~~~~~~~~~~~~~~~~~~~~1084-1084
Sit down~~~~~~~~~~~~~~~~~~~~~~~~~~~~~1046-1084
Look around~~~~~~~~~~~~~~~~~~~~~~~~~~~~~0-0
Yawn~~~~~~~~~~~~~~~~~~~~~~~~~~~~~0-0
Idle~~~~~~~~~~~~~~~~~~~~~~~~~~~~~239-455
Jump~~~~~~~~~~~~~~~~~~~~~~~~~~~~~802-855
Death 3~~~~~~~~~~~~~~~~~~~~~~~~~~~~~0-0
Death 2~~~~~~~~~~~~~~~~~~~~~~~~~~~~~478-526
Death 1~~~~~~~~~~~~~~~~~~~~~~~~~~~~~424-476
Hit 3~~~~~~~~~~~~~~~~~~~~~~~~~~~~~0-0
Hit 2~~~~~~~~~~~~~~~~~~~~~~~~~~~~~0-0
Hit 1~~~~~~~~~~~~~~~~~~~~~~~~~~~~~0-0
Shield parry~~~~~~~~~~~~~~~~~~~~~~~~~~~~~0-0
Staff parry~~~~~~~~~~~~~~~~~~~~~~~~~~~~~0-0
Two hand parry~~~~~~~~~~~~~~~~~~~~~~~~~~~~~0-0
Right hand parry~~~~~~~~~~~~~~~~~~~~~~~~~~~~~0-0
Default parry~~~~~~~~~~~~~~~~~~~~~~~~~~~~~0-0
Staff attack~~~~~~~~~~~~~~~~~~~~~~~~~~~~~0-0
Two hand attack~~~~~~~~~~~~~~~~~~~~~~~~~~~~~0-0
Right hand attack~~~~~~~~~~~~~~~~~~~~~~~~~~~~~865-920
Default attack~~~~~~~~~~~~~~~~~~~~~~~~~~~~~634-710
Ride run~~~~~~~~~~~~~~~~~~~~~~~~~~~~~208-223
Ride walk~~~~~~~~~~~~~~~~~~~~~~~~~~~~~185-206
Ride idle~~~~~~~~~~~~~~~~~~~~~~~~~~~~~140-140
Swim fast~~~~~~~~~~~~~~~~~~~~~~~~~~~~~93-139
Swim slow~~~~~~~~~~~~~~~~~~~~~~~~~~~~~93-139
Swim idle~~~~~~~~~~~~~~~~~~~~~~~~~~~~~93-139
Run~~~~~~~~~~~~~~~~~~~~~~~~~~~~~67-91
Walk~~~~~~~~~~~~~~~~~~~~~~~~~~~~~3-39


Anim ID: 6
Anim Set: Dwarf (Male)
Stand up~~~~~~~~~~~~~~~~~~~~~~~~~~~~~0-0
Sit idle~~~~~~~~~~~~~~~~~~~~~~~~~~~~~1093-1093
Sit down~~~~~~~~~~~~~~~~~~~~~~~~~~~~~1023-1093
Look around~~~~~~~~~~~~~~~~~~~~~~~~~~~~~0-0
Yawn~~~~~~~~~~~~~~~~~~~~~~~~~~~~~0-0
Idle~~~~~~~~~~~~~~~~~~~~~~~~~~~~~225-428
Jump~~~~~~~~~~~~~~~~~~~~~~~~~~~~~783-847
Death 3~~~~~~~~~~~~~~~~~~~~~~~~~~~~~0-0
Death 2~~~~~~~~~~~~~~~~~~~~~~~~~~~~~485-533
Death 1~~~~~~~~~~~~~~~~~~~~~~~~~~~~~430-483
Hit 3~~~~~~~~~~~~~~~~~~~~~~~~~~~~~0-0
Hit 2~~~~~~~~~~~~~~~~~~~~~~~~~~~~~0-0
Hit 1~~~~~~~~~~~~~~~~~~~~~~~~~~~~~0-0
Shield parry~~~~~~~~~~~~~~~~~~~~~~~~~~~~~0-0
Staff parry~~~~~~~~~~~~~~~~~~~~~~~~~~~~~0-0
Two hand parry~~~~~~~~~~~~~~~~~~~~~~~~~~~~~0-0
Right hand parry~~~~~~~~~~~~~~~~~~~~~~~~~~~~~0-0
Default parry~~~~~~~~~~~~~~~~~~~~~~~~~~~~~0-0
Staff attack~~~~~~~~~~~~~~~~~~~~~~~~~~~~~0-0
Two hand attack~~~~~~~~~~~~~~~~~~~~~~~~~~~~~0-0
Right hand attack~~~~~~~~~~~~~~~~~~~~~~~~~~~~~848-903
Default attack~~~~~~~~~~~~~~~~~~~~~~~~~~~~~601-681
Ride run~~~~~~~~~~~~~~~~~~~~~~~~~~~~~208-222
Ride walk~~~~~~~~~~~~~~~~~~~~~~~~~~~~~184-206
Ride idle~~~~~~~~~~~~~~~~~~~~~~~~~~~~~140-140
Swim fast~~~~~~~~~~~~~~~~~~~~~~~~~~~~~93-139
Swim slow~~~~~~~~~~~~~~~~~~~~~~~~~~~~~93-139
Swim idle~~~~~~~~~~~~~~~~~~~~~~~~~~~~~93-139
Run~~~~~~~~~~~~~~~~~~~~~~~~~~~~~67-91
Walk~~~~~~~~~~~~~~~~~~~~~~~~~~~~~3-39


Anim ID: 7
Anim Set: Dwarf (Female)
Stand up~~~~~~~~~~~~~~~~~~~~~~~~~~~~~0-0
Sit idle~~~~~~~~~~~~~~~~~~~~~~~~~~~~~1082-1082
Sit down~~~~~~~~~~~~~~~~~~~~~~~~~~~~~1046-1082
Look around~~~~~~~~~~~~~~~~~~~~~~~~~~~~~0-0
Yawn~~~~~~~~~~~~~~~~~~~~~~~~~~~~~0-0
Idle~~~~~~~~~~~~~~~~~~~~~~~~~~~~~239-455
Jump~~~~~~~~~~~~~~~~~~~~~~~~~~~~~802-855
Death 3~~~~~~~~~~~~~~~~~~~~~~~~~~~~~0-0
Death 2~~~~~~~~~~~~~~~~~~~~~~~~~~~~~478-526
Death 1~~~~~~~~~~~~~~~~~~~~~~~~~~~~~424-476
Hit 3~~~~~~~~~~~~~~~~~~~~~~~~~~~~~0-0
Hit 2~~~~~~~~~~~~~~~~~~~~~~~~~~~~~0-0
Hit 1~~~~~~~~~~~~~~~~~~~~~~~~~~~~~0-0
Shield parry~~~~~~~~~~~~~~~~~~~~~~~~~~~~~0-0
Staff parry~~~~~~~~~~~~~~~~~~~~~~~~~~~~~0-0
Two hand parry~~~~~~~~~~~~~~~~~~~~~~~~~~~~~0-0
Right hand parry~~~~~~~~~~~~~~~~~~~~~~~~~~~~~0-0
Default parry~~~~~~~~~~~~~~~~~~~~~~~~~~~~~0-0
Staff attack~~~~~~~~~~~~~~~~~~~~~~~~~~~~~0-0
Two hand attack~~~~~~~~~~~~~~~~~~~~~~~~~~~~~0-0
Right hand attack~~~~~~~~~~~~~~~~~~~~~~~~~~~~~866-922
Default attack~~~~~~~~~~~~~~~~~~~~~~~~~~~~~632-708
Ride run~~~~~~~~~~~~~~~~~~~~~~~~~~~~~206-222
Ride walk~~~~~~~~~~~~~~~~~~~~~~~~~~~~~184-204
Ride idle~~~~~~~~~~~~~~~~~~~~~~~~~~~~~140-140
Swim fast~~~~~~~~~~~~~~~~~~~~~~~~~~~~~93-139
Swim slow~~~~~~~~~~~~~~~~~~~~~~~~~~~~~93-139
Swim idle~~~~~~~~~~~~~~~~~~~~~~~~~~~~~93-139
Run~~~~~~~~~~~~~~~~~~~~~~~~~~~~~67-91
Walk~~~~~~~~~~~~~~~~~~~~~~~~~~~~~3-39


Anim ID: 8
Anim Set: Lizardman
Ranged~~~~~~~~~~~~~~~~~~~~~~~~~~~~~818-937
Stand up~~~~~~~~~~~~~~~~~~~~~~~~~~~~~0-0
Sit idle~~~~~~~~~~~~~~~~~~~~~~~~~~~~~0-0
Sit down~~~~~~~~~~~~~~~~~~~~~~~~~~~~~0-0
Look around~~~~~~~~~~~~~~~~~~~~~~~~~~~~~0-0
Yawn~~~~~~~~~~~~~~~~~~~~~~~~~~~~~0-0
Idle~~~~~~~~~~~~~~~~~~~~~~~~~~~~~189-422
Jump~~~~~~~~~~~~~~~~~~~~~~~~~~~~~0-0
Death 3~~~~~~~~~~~~~~~~~~~~~~~~~~~~~0-0
Death 2~~~~~~~~~~~~~~~~~~~~~~~~~~~~~478-527
Death 1~~~~~~~~~~~~~~~~~~~~~~~~~~~~~423-477
Hit 3~~~~~~~~~~~~~~~~~~~~~~~~~~~~~0-0
Hit 2~~~~~~~~~~~~~~~~~~~~~~~~~~~~~0-0
Hit 1~~~~~~~~~~~~~~~~~~~~~~~~~~~~~0-0
Shield parry~~~~~~~~~~~~~~~~~~~~~~~~~~~~~0-0
Staff parry~~~~~~~~~~~~~~~~~~~~~~~~~~~~~0-0
Two hand parry~~~~~~~~~~~~~~~~~~~~~~~~~~~~~0-0
Right hand parry~~~~~~~~~~~~~~~~~~~~~~~~~~~~~0-0
Default parry~~~~~~~~~~~~~~~~~~~~~~~~~~~~~0-0
Staff attack~~~~~~~~~~~~~~~~~~~~~~~~~~~~~763-817
Two hand attack~~~~~~~~~~~~~~~~~~~~~~~~~~~~~677-762
Right hand attack~~~~~~~~~~~~~~~~~~~~~~~~~~~~~528-595
Default attack~~~~~~~~~~~~~~~~~~~~~~~~~~~~~596-676
Ride run~~~~~~~~~~~~~~~~~~~~~~~~~~~~~108-149
Ride walk~~~~~~~~~~~~~~~~~~~~~~~~~~~~~108-149
Ride idle~~~~~~~~~~~~~~~~~~~~~~~~~~~~~108-108
Swim fast~~~~~~~~~~~~~~~~~~~~~~~~~~~~~60-107
Swim slow~~~~~~~~~~~~~~~~~~~~~~~~~~~~~61-107
Swim idle~~~~~~~~~~~~~~~~~~~~~~~~~~~~~61-61
Run~~~~~~~~~~~~~~~~~~~~~~~~~~~~~34-60
Walk~~~~~~~~~~~~~~~~~~~~~~~~~~~~~0-33


Anim ID: 9
Anim Set: Bat
Stand up~~~~~~~~~~~~~~~~~~~~~~~~~~~~~0-0
Sit idle~~~~~~~~~~~~~~~~~~~~~~~~~~~~~0-0
Sit down~~~~~~~~~~~~~~~~~~~~~~~~~~~~~0-0
Look around~~~~~~~~~~~~~~~~~~~~~~~~~~~~~0-0
Yawn~~~~~~~~~~~~~~~~~~~~~~~~~~~~~0-0
Idle~~~~~~~~~~~~~~~~~~~~~~~~~~~~~67-85
Jump~~~~~~~~~~~~~~~~~~~~~~~~~~~~~67-85
Death 3~~~~~~~~~~~~~~~~~~~~~~~~~~~~~48-65
Death 2~~~~~~~~~~~~~~~~~~~~~~~~~~~~~48-65
Death 1~~~~~~~~~~~~~~~~~~~~~~~~~~~~~48-65
Hit 3~~~~~~~~~~~~~~~~~~~~~~~~~~~~~0-0
Hit 2~~~~~~~~~~~~~~~~~~~~~~~~~~~~~0-0
Hit 1~~~~~~~~~~~~~~~~~~~~~~~~~~~~~0-0
Shield parry~~~~~~~~~~~~~~~~~~~~~~~~~~~~~0-0
Staff parry~~~~~~~~~~~~~~~~~~~~~~~~~~~~~0-0
Two hand parry~~~~~~~~~~~~~~~~~~~~~~~~~~~~~0-0
Right hand parry~~~~~~~~~~~~~~~~~~~~~~~~~~~~~0-0
Default parry~~~~~~~~~~~~~~~~~~~~~~~~~~~~~11-26
Staff attack~~~~~~~~~~~~~~~~~~~~~~~~~~~~~0-0
Two hand attack~~~~~~~~~~~~~~~~~~~~~~~~~~~~~0-0
Right hand attack~~~~~~~~~~~~~~~~~~~~~~~~~~~~~0-0
Default attack~~~~~~~~~~~~~~~~~~~~~~~~~~~~~1-10
Ride run~~~~~~~~~~~~~~~~~~~~~~~~~~~~~0-0
Ride walk~~~~~~~~~~~~~~~~~~~~~~~~~~~~~0-0
Ride idle~~~~~~~~~~~~~~~~~~~~~~~~~~~~~0-0
Swim fast~~~~~~~~~~~~~~~~~~~~~~~~~~~~~0-0
Swim slow~~~~~~~~~~~~~~~~~~~~~~~~~~~~~0-0
Swim idle~~~~~~~~~~~~~~~~~~~~~~~~~~~~~0-0
Run~~~~~~~~~~~~~~~~~~~~~~~~~~~~~41-47
Walk~~~~~~~~~~~~~~~~~~~~~~~~~~~~~27-40


Anim ID: 10
Anim Set: Bear
Stand up~~~~~~~~~~~~~~~~~~~~~~~~~~~~~0-0
Sit idle~~~~~~~~~~~~~~~~~~~~~~~~~~~~~0-0
Sit down~~~~~~~~~~~~~~~~~~~~~~~~~~~~~0-0
Look around~~~~~~~~~~~~~~~~~~~~~~~~~~~~~0-0
Yawn~~~~~~~~~~~~~~~~~~~~~~~~~~~~~0-0
Idle~~~~~~~~~~~~~~~~~~~~~~~~~~~~~80-110
Jump~~~~~~~~~~~~~~~~~~~~~~~~~~~~~80-110
Death 3~~~~~~~~~~~~~~~~~~~~~~~~~~~~~61-78
Death 2~~~~~~~~~~~~~~~~~~~~~~~~~~~~~61-78
Death 1~~~~~~~~~~~~~~~~~~~~~~~~~~~~~61-78
Hit 3~~~~~~~~~~~~~~~~~~~~~~~~~~~~~0-0
Hit 2~~~~~~~~~~~~~~~~~~~~~~~~~~~~~0-0
Hit 1~~~~~~~~~~~~~~~~~~~~~~~~~~~~~0-0
Shield parry~~~~~~~~~~~~~~~~~~~~~~~~~~~~~0-0
Staff parry~~~~~~~~~~~~~~~~~~~~~~~~~~~~~0-0
Two hand parry~~~~~~~~~~~~~~~~~~~~~~~~~~~~~0-0
Right hand parry~~~~~~~~~~~~~~~~~~~~~~~~~~~~~0-0
Default parry~~~~~~~~~~~~~~~~~~~~~~~~~~~~~17-35
Staff attack~~~~~~~~~~~~~~~~~~~~~~~~~~~~~0-0
Two hand attack~~~~~~~~~~~~~~~~~~~~~~~~~~~~~0-0
Right hand attack~~~~~~~~~~~~~~~~~~~~~~~~~~~~~0-0
Default attack~~~~~~~~~~~~~~~~~~~~~~~~~~~~~1-15
Ride run~~~~~~~~~~~~~~~~~~~~~~~~~~~~~0-0
Ride walk~~~~~~~~~~~~~~~~~~~~~~~~~~~~~0-0
Ride idle~~~~~~~~~~~~~~~~~~~~~~~~~~~~~0-0
Swim fast~~~~~~~~~~~~~~~~~~~~~~~~~~~~~0-0
Swim slow~~~~~~~~~~~~~~~~~~~~~~~~~~~~~0-0
Swim idle~~~~~~~~~~~~~~~~~~~~~~~~~~~~~0-0
Run~~~~~~~~~~~~~~~~~~~~~~~~~~~~~52-59
Walk~~~~~~~~~~~~~~~~~~~~~~~~~~~~~37-50


Anim ID: 11
Anim Set: Beetle
Stand up~~~~~~~~~~~~~~~~~~~~~~~~~~~~~0-0
Sit idle~~~~~~~~~~~~~~~~~~~~~~~~~~~~~0-0
Sit down~~~~~~~~~~~~~~~~~~~~~~~~~~~~~0-0
Look around~~~~~~~~~~~~~~~~~~~~~~~~~~~~~0-0
Yawn~~~~~~~~~~~~~~~~~~~~~~~~~~~~~0-0
Idle~~~~~~~~~~~~~~~~~~~~~~~~~~~~~81-105
Jump~~~~~~~~~~~~~~~~~~~~~~~~~~~~~81-105
Death 3~~~~~~~~~~~~~~~~~~~~~~~~~~~~~60-76
Death 2~~~~~~~~~~~~~~~~~~~~~~~~~~~~~60-76
Death 1~~~~~~~~~~~~~~~~~~~~~~~~~~~~~60-76
Hit 3~~~~~~~~~~~~~~~~~~~~~~~~~~~~~0-0
Hit 2~~~~~~~~~~~~~~~~~~~~~~~~~~~~~0-0
Hit 1~~~~~~~~~~~~~~~~~~~~~~~~~~~~~0-0
Shield parry~~~~~~~~~~~~~~~~~~~~~~~~~~~~~0-0
Staff parry~~~~~~~~~~~~~~~~~~~~~~~~~~~~~0-0
Two hand parry~~~~~~~~~~~~~~~~~~~~~~~~~~~~~0-0
Right hand parry~~~~~~~~~~~~~~~~~~~~~~~~~~~~~0-0
Default parry~~~~~~~~~~~~~~~~~~~~~~~~~~~~~17-35
Staff attack~~~~~~~~~~~~~~~~~~~~~~~~~~~~~0-0
Two hand attack~~~~~~~~~~~~~~~~~~~~~~~~~~~~~0-0
Right hand attack~~~~~~~~~~~~~~~~~~~~~~~~~~~~~0-0
Default attack~~~~~~~~~~~~~~~~~~~~~~~~~~~~~1-15
Ride run~~~~~~~~~~~~~~~~~~~~~~~~~~~~~0-0
Ride walk~~~~~~~~~~~~~~~~~~~~~~~~~~~~~0-0
Ride idle~~~~~~~~~~~~~~~~~~~~~~~~~~~~~0-0
Swim fast~~~~~~~~~~~~~~~~~~~~~~~~~~~~~0-0
Swim slow~~~~~~~~~~~~~~~~~~~~~~~~~~~~~0-0
Swim idle~~~~~~~~~~~~~~~~~~~~~~~~~~~~~0-0
Run~~~~~~~~~~~~~~~~~~~~~~~~~~~~~51-58
Walk~~~~~~~~~~~~~~~~~~~~~~~~~~~~~37-49


Anim ID: 12
Anim Set: Boar
Stand up~~~~~~~~~~~~~~~~~~~~~~~~~~~~~0-0
Sit idle~~~~~~~~~~~~~~~~~~~~~~~~~~~~~0-0
Sit down~~~~~~~~~~~~~~~~~~~~~~~~~~~~~0-0
Look around~~~~~~~~~~~~~~~~~~~~~~~~~~~~~0-0
Yawn~~~~~~~~~~~~~~~~~~~~~~~~~~~~~0-0
Idle~~~~~~~~~~~~~~~~~~~~~~~~~~~~~70-95
Jump~~~~~~~~~~~~~~~~~~~~~~~~~~~~~70-95
Death 3~~~~~~~~~~~~~~~~~~~~~~~~~~~~~54-68
Death 2~~~~~~~~~~~~~~~~~~~~~~~~~~~~~54-68
Death 1~~~~~~~~~~~~~~~~~~~~~~~~~~~~~54-68
Hit 3~~~~~~~~~~~~~~~~~~~~~~~~~~~~~0-0
Hit 2~~~~~~~~~~~~~~~~~~~~~~~~~~~~~0-0
Hit 1~~~~~~~~~~~~~~~~~~~~~~~~~~~~~0-0
Shield parry~~~~~~~~~~~~~~~~~~~~~~~~~~~~~0-0
Staff parry~~~~~~~~~~~~~~~~~~~~~~~~~~~~~0-0
Two hand parry~~~~~~~~~~~~~~~~~~~~~~~~~~~~~0-0
Right hand parry~~~~~~~~~~~~~~~~~~~~~~~~~~~~~0-0
Default parry~~~~~~~~~~~~~~~~~~~~~~~~~~~~~17-30
Staff attack~~~~~~~~~~~~~~~~~~~~~~~~~~~~~0-0
Two hand attack~~~~~~~~~~~~~~~~~~~~~~~~~~~~~0-0
Right hand attack~~~~~~~~~~~~~~~~~~~~~~~~~~~~~0-0
Default attack~~~~~~~~~~~~~~~~~~~~~~~~~~~~~1-15
Ride run~~~~~~~~~~~~~~~~~~~~~~~~~~~~~0-0
Ride walk~~~~~~~~~~~~~~~~~~~~~~~~~~~~~0-0
Ride idle~~~~~~~~~~~~~~~~~~~~~~~~~~~~~0-0
Swim fast~~~~~~~~~~~~~~~~~~~~~~~~~~~~~0-0
Swim slow~~~~~~~~~~~~~~~~~~~~~~~~~~~~~0-0
Swim idle~~~~~~~~~~~~~~~~~~~~~~~~~~~~~0-0
Run~~~~~~~~~~~~~~~~~~~~~~~~~~~~~47-52
Walk~~~~~~~~~~~~~~~~~~~~~~~~~~~~~32-45


Anim ID: 13
Anim Set: Cat
Stand up~~~~~~~~~~~~~~~~~~~~~~~~~~~~~0-0
Sit idle~~~~~~~~~~~~~~~~~~~~~~~~~~~~~0-0
Sit down~~~~~~~~~~~~~~~~~~~~~~~~~~~~~0-0
Look around~~~~~~~~~~~~~~~~~~~~~~~~~~~~~0-0
Yawn~~~~~~~~~~~~~~~~~~~~~~~~~~~~~0-0
Idle~~~~~~~~~~~~~~~~~~~~~~~~~~~~~53-70
Jump~~~~~~~~~~~~~~~~~~~~~~~~~~~~~0-0
Death 3~~~~~~~~~~~~~~~~~~~~~~~~~~~~~45-51
Death 2~~~~~~~~~~~~~~~~~~~~~~~~~~~~~45-51
Death 1~~~~~~~~~~~~~~~~~~~~~~~~~~~~~45-51
Hit 3~~~~~~~~~~~~~~~~~~~~~~~~~~~~~0-0
Hit 2~~~~~~~~~~~~~~~~~~~~~~~~~~~~~0-0
Hit 1~~~~~~~~~~~~~~~~~~~~~~~~~~~~~0-0
Shield parry~~~~~~~~~~~~~~~~~~~~~~~~~~~~~0-0
Staff parry~~~~~~~~~~~~~~~~~~~~~~~~~~~~~0-0
Two hand parry~~~~~~~~~~~~~~~~~~~~~~~~~~~~~0-0
Right hand parry~~~~~~~~~~~~~~~~~~~~~~~~~~~~~0-0
Default parry~~~~~~~~~~~~~~~~~~~~~~~~~~~~~11-22
Staff attack~~~~~~~~~~~~~~~~~~~~~~~~~~~~~0-0
Two hand attack~~~~~~~~~~~~~~~~~~~~~~~~~~~~~0-0
Right hand attack~~~~~~~~~~~~~~~~~~~~~~~~~~~~~0-0
Default attack~~~~~~~~~~~~~~~~~~~~~~~~~~~~~1-9
Ride run~~~~~~~~~~~~~~~~~~~~~~~~~~~~~0-0
Ride walk~~~~~~~~~~~~~~~~~~~~~~~~~~~~~0-0
Ride idle~~~~~~~~~~~~~~~~~~~~~~~~~~~~~0-0
Swim fast~~~~~~~~~~~~~~~~~~~~~~~~~~~~~0-0
Swim slow~~~~~~~~~~~~~~~~~~~~~~~~~~~~~0-0
Swim idle~~~~~~~~~~~~~~~~~~~~~~~~~~~~~0-0
Run~~~~~~~~~~~~~~~~~~~~~~~~~~~~~39-43
Walk~~~~~~~~~~~~~~~~~~~~~~~~~~~~~25-37


Anim ID: 14
Anim Set: Chicken
Stand up~~~~~~~~~~~~~~~~~~~~~~~~~~~~~0-0
Sit idle~~~~~~~~~~~~~~~~~~~~~~~~~~~~~0-0
Sit down~~~~~~~~~~~~~~~~~~~~~~~~~~~~~0-0
Look around~~~~~~~~~~~~~~~~~~~~~~~~~~~~~0-0
Yawn~~~~~~~~~~~~~~~~~~~~~~~~~~~~~0-0
Idle~~~~~~~~~~~~~~~~~~~~~~~~~~~~~71-105
Jump~~~~~~~~~~~~~~~~~~~~~~~~~~~~~0-0
Death 3~~~~~~~~~~~~~~~~~~~~~~~~~~~~~56-68
Death 2~~~~~~~~~~~~~~~~~~~~~~~~~~~~~56-68
Death 1~~~~~~~~~~~~~~~~~~~~~~~~~~~~~56-68
Hit 3~~~~~~~~~~~~~~~~~~~~~~~~~~~~~0-0
Hit 2~~~~~~~~~~~~~~~~~~~~~~~~~~~~~0-0
Hit 1~~~~~~~~~~~~~~~~~~~~~~~~~~~~~0-0
Shield parry~~~~~~~~~~~~~~~~~~~~~~~~~~~~~0-0
Staff parry~~~~~~~~~~~~~~~~~~~~~~~~~~~~~0-0
Two hand parry~~~~~~~~~~~~~~~~~~~~~~~~~~~~~0-0
Right hand parry~~~~~~~~~~~~~~~~~~~~~~~~~~~~~0-0
Default parry~~~~~~~~~~~~~~~~~~~~~~~~~~~~~17-29
Staff attack~~~~~~~~~~~~~~~~~~~~~~~~~~~~~0-0
Two hand attack~~~~~~~~~~~~~~~~~~~~~~~~~~~~~0-0
Right hand attack~~~~~~~~~~~~~~~~~~~~~~~~~~~~~0-0
Default attack~~~~~~~~~~~~~~~~~~~~~~~~~~~~~1-15
Ride run~~~~~~~~~~~~~~~~~~~~~~~~~~~~~0-0
Ride walk~~~~~~~~~~~~~~~~~~~~~~~~~~~~~0-0
Ride idle~~~~~~~~~~~~~~~~~~~~~~~~~~~~~0-0
Swim fast~~~~~~~~~~~~~~~~~~~~~~~~~~~~~0-0
Swim slow~~~~~~~~~~~~~~~~~~~~~~~~~~~~~0-0
Swim idle~~~~~~~~~~~~~~~~~~~~~~~~~~~~~0-0
Run~~~~~~~~~~~~~~~~~~~~~~~~~~~~~48-54
Walk~~~~~~~~~~~~~~~~~~~~~~~~~~~~~31-46


Anim ID: 15
Anim Set: Cow
Stand up~~~~~~~~~~~~~~~~~~~~~~~~~~~~~0-0
Sit idle~~~~~~~~~~~~~~~~~~~~~~~~~~~~~0-0
Sit down~~~~~~~~~~~~~~~~~~~~~~~~~~~~~0-0
Look around~~~~~~~~~~~~~~~~~~~~~~~~~~~~~0-0
Yawn~~~~~~~~~~~~~~~~~~~~~~~~~~~~~0-0
Idle~~~~~~~~~~~~~~~~~~~~~~~~~~~~~75-110
Jump~~~~~~~~~~~~~~~~~~~~~~~~~~~~~0-0
Death 3~~~~~~~~~~~~~~~~~~~~~~~~~~~~~55-73
Death 2~~~~~~~~~~~~~~~~~~~~~~~~~~~~~55-73
Death 1~~~~~~~~~~~~~~~~~~~~~~~~~~~~~55-73
Hit 3~~~~~~~~~~~~~~~~~~~~~~~~~~~~~0-0
Hit 2~~~~~~~~~~~~~~~~~~~~~~~~~~~~~0-0
Hit 1~~~~~~~~~~~~~~~~~~~~~~~~~~~~~0-0
Shield parry~~~~~~~~~~~~~~~~~~~~~~~~~~~~~0-0
Staff parry~~~~~~~~~~~~~~~~~~~~~~~~~~~~~0-0
Two hand parry~~~~~~~~~~~~~~~~~~~~~~~~~~~~~0-0
Right hand parry~~~~~~~~~~~~~~~~~~~~~~~~~~~~~0-0
Default parry~~~~~~~~~~~~~~~~~~~~~~~~~~~~~17-30
Staff attack~~~~~~~~~~~~~~~~~~~~~~~~~~~~~0-0
Two hand attack~~~~~~~~~~~~~~~~~~~~~~~~~~~~~0-0
Right hand attack~~~~~~~~~~~~~~~~~~~~~~~~~~~~~0-0
Default attack~~~~~~~~~~~~~~~~~~~~~~~~~~~~~1-15
Ride run~~~~~~~~~~~~~~~~~~~~~~~~~~~~~0-0
Ride walk~~~~~~~~~~~~~~~~~~~~~~~~~~~~~0-0
Ride idle~~~~~~~~~~~~~~~~~~~~~~~~~~~~~0-0
Swim fast~~~~~~~~~~~~~~~~~~~~~~~~~~~~~0-0
Swim slow~~~~~~~~~~~~~~~~~~~~~~~~~~~~~0-0
Swim idle~~~~~~~~~~~~~~~~~~~~~~~~~~~~~0-0
Run~~~~~~~~~~~~~~~~~~~~~~~~~~~~~17-30
Walk~~~~~~~~~~~~~~~~~~~~~~~~~~~~~32-45


Anim ID: 16
Anim Set: Deer
Stand up~~~~~~~~~~~~~~~~~~~~~~~~~~~~~0-0
Sit idle~~~~~~~~~~~~~~~~~~~~~~~~~~~~~0-0
Sit down~~~~~~~~~~~~~~~~~~~~~~~~~~~~~0-0
Look around~~~~~~~~~~~~~~~~~~~~~~~~~~~~~0-0
Yawn~~~~~~~~~~~~~~~~~~~~~~~~~~~~~0-0
Idle~~~~~~~~~~~~~~~~~~~~~~~~~~~~~75-105
Jump~~~~~~~~~~~~~~~~~~~~~~~~~~~~~0-0
Death 3~~~~~~~~~~~~~~~~~~~~~~~~~~~~~62-73
Death 2~~~~~~~~~~~~~~~~~~~~~~~~~~~~~62-73
Death 1~~~~~~~~~~~~~~~~~~~~~~~~~~~~~62-73
Hit 3~~~~~~~~~~~~~~~~~~~~~~~~~~~~~0-0
Hit 2~~~~~~~~~~~~~~~~~~~~~~~~~~~~~0-0
Hit 1~~~~~~~~~~~~~~~~~~~~~~~~~~~~~0-0
Shield parry~~~~~~~~~~~~~~~~~~~~~~~~~~~~~0-0
Staff parry~~~~~~~~~~~~~~~~~~~~~~~~~~~~~0-0
Two hand parry~~~~~~~~~~~~~~~~~~~~~~~~~~~~~0-0
Right hand parry~~~~~~~~~~~~~~~~~~~~~~~~~~~~~0-0
Default parry~~~~~~~~~~~~~~~~~~~~~~~~~~~~~17-31
Staff attack~~~~~~~~~~~~~~~~~~~~~~~~~~~~~0-0
Two hand attack~~~~~~~~~~~~~~~~~~~~~~~~~~~~~0-0
Right hand attack~~~~~~~~~~~~~~~~~~~~~~~~~~~~~0-0
Default attack~~~~~~~~~~~~~~~~~~~~~~~~~~~~~1-15
Ride run~~~~~~~~~~~~~~~~~~~~~~~~~~~~~0-0
Ride walk~~~~~~~~~~~~~~~~~~~~~~~~~~~~~0-0
Ride idle~~~~~~~~~~~~~~~~~~~~~~~~~~~~~0-0
Swim fast~~~~~~~~~~~~~~~~~~~~~~~~~~~~~0-0
Swim slow~~~~~~~~~~~~~~~~~~~~~~~~~~~~~0-0
Swim idle~~~~~~~~~~~~~~~~~~~~~~~~~~~~~0-0
Run~~~~~~~~~~~~~~~~~~~~~~~~~~~~~52-60
Walk~~~~~~~~~~~~~~~~~~~~~~~~~~~~~33-50


Anim ID: 17
Anim Set: Doe
Stand up~~~~~~~~~~~~~~~~~~~~~~~~~~~~~0-0
Sit idle~~~~~~~~~~~~~~~~~~~~~~~~~~~~~0-0
Sit down~~~~~~~~~~~~~~~~~~~~~~~~~~~~~0-0
Look around~~~~~~~~~~~~~~~~~~~~~~~~~~~~~0-0
Yawn~~~~~~~~~~~~~~~~~~~~~~~~~~~~~0-0
Idle~~~~~~~~~~~~~~~~~~~~~~~~~~~~~75-105
Jump~~~~~~~~~~~~~~~~~~~~~~~~~~~~~0-0
Death 3~~~~~~~~~~~~~~~~~~~~~~~~~~~~~62-73
Death 2~~~~~~~~~~~~~~~~~~~~~~~~~~~~~62-73
Death 1~~~~~~~~~~~~~~~~~~~~~~~~~~~~~62-73
Hit 3~~~~~~~~~~~~~~~~~~~~~~~~~~~~~0-0
Hit 2~~~~~~~~~~~~~~~~~~~~~~~~~~~~~0-0
Hit 1~~~~~~~~~~~~~~~~~~~~~~~~~~~~~0-0
Shield parry~~~~~~~~~~~~~~~~~~~~~~~~~~~~~0-0
Staff parry~~~~~~~~~~~~~~~~~~~~~~~~~~~~~0-0
Two hand parry~~~~~~~~~~~~~~~~~~~~~~~~~~~~~0-0
Right hand parry~~~~~~~~~~~~~~~~~~~~~~~~~~~~~0-0
Default parry~~~~~~~~~~~~~~~~~~~~~~~~~~~~~17-31
Staff attack~~~~~~~~~~~~~~~~~~~~~~~~~~~~~0-0
Two hand attack~~~~~~~~~~~~~~~~~~~~~~~~~~~~~0-0
Right hand attack~~~~~~~~~~~~~~~~~~~~~~~~~~~~~0-0
Default attack~~~~~~~~~~~~~~~~~~~~~~~~~~~~~1-15
Ride run~~~~~~~~~~~~~~~~~~~~~~~~~~~~~0-0
Ride walk~~~~~~~~~~~~~~~~~~~~~~~~~~~~~0-0
Ride idle~~~~~~~~~~~~~~~~~~~~~~~~~~~~~0-0
Swim fast~~~~~~~~~~~~~~~~~~~~~~~~~~~~~0-0
Swim slow~~~~~~~~~~~~~~~~~~~~~~~~~~~~~0-0
Swim idle~~~~~~~~~~~~~~~~~~~~~~~~~~~~~0-0
Run~~~~~~~~~~~~~~~~~~~~~~~~~~~~~52-60
Walk~~~~~~~~~~~~~~~~~~~~~~~~~~~~~33-50


Anim ID: 18
Anim Set: Dog
Stand up~~~~~~~~~~~~~~~~~~~~~~~~~~~~~0-0
Sit idle~~~~~~~~~~~~~~~~~~~~~~~~~~~~~0-0
Sit down~~~~~~~~~~~~~~~~~~~~~~~~~~~~~0-0
Look around~~~~~~~~~~~~~~~~~~~~~~~~~~~~~0-0
Yawn~~~~~~~~~~~~~~~~~~~~~~~~~~~~~0-0
Idle~~~~~~~~~~~~~~~~~~~~~~~~~~~~~52-65
Jump~~~~~~~~~~~~~~~~~~~~~~~~~~~~~0-0
Death 3~~~~~~~~~~~~~~~~~~~~~~~~~~~~~43-50
Death 2~~~~~~~~~~~~~~~~~~~~~~~~~~~~~43-50
Death 1~~~~~~~~~~~~~~~~~~~~~~~~~~~~~43-50
Hit 3~~~~~~~~~~~~~~~~~~~~~~~~~~~~~0-0
Hit 2~~~~~~~~~~~~~~~~~~~~~~~~~~~~~0-0
Hit 1~~~~~~~~~~~~~~~~~~~~~~~~~~~~~0-0
Shield parry~~~~~~~~~~~~~~~~~~~~~~~~~~~~~0-0
Staff parry~~~~~~~~~~~~~~~~~~~~~~~~~~~~~0-0
Two hand parry~~~~~~~~~~~~~~~~~~~~~~~~~~~~~0-0
Right hand parry~~~~~~~~~~~~~~~~~~~~~~~~~~~~~0-0
Default parry~~~~~~~~~~~~~~~~~~~~~~~~~~~~~12-20
Staff attack~~~~~~~~~~~~~~~~~~~~~~~~~~~~~0-0
Two hand attack~~~~~~~~~~~~~~~~~~~~~~~~~~~~~0-0
Right hand attack~~~~~~~~~~~~~~~~~~~~~~~~~~~~~0-0
Default attack~~~~~~~~~~~~~~~~~~~~~~~~~~~~~1-10
Ride run~~~~~~~~~~~~~~~~~~~~~~~~~~~~~0-0
Ride walk~~~~~~~~~~~~~~~~~~~~~~~~~~~~~0-0
Ride idle~~~~~~~~~~~~~~~~~~~~~~~~~~~~~0-0
Swim fast~~~~~~~~~~~~~~~~~~~~~~~~~~~~~0-0
Swim slow~~~~~~~~~~~~~~~~~~~~~~~~~~~~~0-0
Swim idle~~~~~~~~~~~~~~~~~~~~~~~~~~~~~0-0
Run~~~~~~~~~~~~~~~~~~~~~~~~~~~~~33-41
Walk~~~~~~~~~~~~~~~~~~~~~~~~~~~~~23-33


Anim ID: 19
Anim Set: Donkey
Stand up~~~~~~~~~~~~~~~~~~~~~~~~~~~~~0-0
Sit idle~~~~~~~~~~~~~~~~~~~~~~~~~~~~~0-0
Sit down~~~~~~~~~~~~~~~~~~~~~~~~~~~~~0-0
Look around~~~~~~~~~~~~~~~~~~~~~~~~~~~~~0-0
Yawn~~~~~~~~~~~~~~~~~~~~~~~~~~~~~0-0
Idle~~~~~~~~~~~~~~~~~~~~~~~~~~~~~70-100
Jump~~~~~~~~~~~~~~~~~~~~~~~~~~~~~0-0
Death 3~~~~~~~~~~~~~~~~~~~~~~~~~~~~~53-68
Death 2~~~~~~~~~~~~~~~~~~~~~~~~~~~~~53-68
Death 1~~~~~~~~~~~~~~~~~~~~~~~~~~~~~53-68
Hit 3~~~~~~~~~~~~~~~~~~~~~~~~~~~~~0-0
Hit 2~~~~~~~~~~~~~~~~~~~~~~~~~~~~~0-0
Hit 1~~~~~~~~~~~~~~~~~~~~~~~~~~~~~0-0
Shield parry~~~~~~~~~~~~~~~~~~~~~~~~~~~~~0-0
Staff parry~~~~~~~~~~~~~~~~~~~~~~~~~~~~~0-0
Two hand parry~~~~~~~~~~~~~~~~~~~~~~~~~~~~~0-0
Right hand parry~~~~~~~~~~~~~~~~~~~~~~~~~~~~~0-0
Default parry~~~~~~~~~~~~~~~~~~~~~~~~~~~~~17-30
Staff attack~~~~~~~~~~~~~~~~~~~~~~~~~~~~~0-0
Two hand attack~~~~~~~~~~~~~~~~~~~~~~~~~~~~~0-0
Right hand attack~~~~~~~~~~~~~~~~~~~~~~~~~~~~~0-0
Default attack~~~~~~~~~~~~~~~~~~~~~~~~~~~~~1-15
Ride run~~~~~~~~~~~~~~~~~~~~~~~~~~~~~0-0
Ride walk~~~~~~~~~~~~~~~~~~~~~~~~~~~~~0-0
Ride idle~~~~~~~~~~~~~~~~~~~~~~~~~~~~~0-0
Swim fast~~~~~~~~~~~~~~~~~~~~~~~~~~~~~0-0
Swim slow~~~~~~~~~~~~~~~~~~~~~~~~~~~~~0-0
Swim idle~~~~~~~~~~~~~~~~~~~~~~~~~~~~~0-0
Run~~~~~~~~~~~~~~~~~~~~~~~~~~~~~47-51
Walk~~~~~~~~~~~~~~~~~~~~~~~~~~~~~32-45


Anim ID: 20
Anim Set: Lion
Stand up~~~~~~~~~~~~~~~~~~~~~~~~~~~~~0-0
Sit idle~~~~~~~~~~~~~~~~~~~~~~~~~~~~~0-0
Sit down~~~~~~~~~~~~~~~~~~~~~~~~~~~~~0-0
Look around~~~~~~~~~~~~~~~~~~~~~~~~~~~~~0-0
Yawn~~~~~~~~~~~~~~~~~~~~~~~~~~~~~0-0
Idle~~~~~~~~~~~~~~~~~~~~~~~~~~~~~74-105
Jump~~~~~~~~~~~~~~~~~~~~~~~~~~~~~0-0
Death 3~~~~~~~~~~~~~~~~~~~~~~~~~~~~~58-72
Death 2~~~~~~~~~~~~~~~~~~~~~~~~~~~~~58-72
Death 1~~~~~~~~~~~~~~~~~~~~~~~~~~~~~58-72
Hit 3~~~~~~~~~~~~~~~~~~~~~~~~~~~~~0-0
Hit 2~~~~~~~~~~~~~~~~~~~~~~~~~~~~~0-0
Hit 1~~~~~~~~~~~~~~~~~~~~~~~~~~~~~0-0
Shield parry~~~~~~~~~~~~~~~~~~~~~~~~~~~~~0-0
Staff parry~~~~~~~~~~~~~~~~~~~~~~~~~~~~~0-0
Two hand parry~~~~~~~~~~~~~~~~~~~~~~~~~~~~~0-0
Right hand parry~~~~~~~~~~~~~~~~~~~~~~~~~~~~~0-0
Default parry~~~~~~~~~~~~~~~~~~~~~~~~~~~~~16-30
Staff attack~~~~~~~~~~~~~~~~~~~~~~~~~~~~~0-0
Two hand attack~~~~~~~~~~~~~~~~~~~~~~~~~~~~~0-0
Right hand attack~~~~~~~~~~~~~~~~~~~~~~~~~~~~~0-0
Default attack~~~~~~~~~~~~~~~~~~~~~~~~~~~~~1-15
Ride run~~~~~~~~~~~~~~~~~~~~~~~~~~~~~0-0
Ride walk~~~~~~~~~~~~~~~~~~~~~~~~~~~~~0-0
Ride idle~~~~~~~~~~~~~~~~~~~~~~~~~~~~~0-0
Swim fast~~~~~~~~~~~~~~~~~~~~~~~~~~~~~0-0
Swim slow~~~~~~~~~~~~~~~~~~~~~~~~~~~~~0-0
Swim idle~~~~~~~~~~~~~~~~~~~~~~~~~~~~~0-0
Run~~~~~~~~~~~~~~~~~~~~~~~~~~~~~48-56
Walk~~~~~~~~~~~~~~~~~~~~~~~~~~~~~32-46


Anim ID: 21
Anim Set: Lioness
Stand up~~~~~~~~~~~~~~~~~~~~~~~~~~~~~0-0
Sit idle~~~~~~~~~~~~~~~~~~~~~~~~~~~~~0-0
Sit down~~~~~~~~~~~~~~~~~~~~~~~~~~~~~0-0
Look around~~~~~~~~~~~~~~~~~~~~~~~~~~~~~0-0
Yawn~~~~~~~~~~~~~~~~~~~~~~~~~~~~~0-0
Idle~~~~~~~~~~~~~~~~~~~~~~~~~~~~~74-105
Jump~~~~~~~~~~~~~~~~~~~~~~~~~~~~~0-0
Death 3~~~~~~~~~~~~~~~~~~~~~~~~~~~~~58-72
Death 2~~~~~~~~~~~~~~~~~~~~~~~~~~~~~58-72
Death 1~~~~~~~~~~~~~~~~~~~~~~~~~~~~~58-72
Hit 3~~~~~~~~~~~~~~~~~~~~~~~~~~~~~0-0
Hit 2~~~~~~~~~~~~~~~~~~~~~~~~~~~~~0-0
Hit 1~~~~~~~~~~~~~~~~~~~~~~~~~~~~~0-0
Shield parry~~~~~~~~~~~~~~~~~~~~~~~~~~~~~0-0
Staff parry~~~~~~~~~~~~~~~~~~~~~~~~~~~~~0-0
Two hand parry~~~~~~~~~~~~~~~~~~~~~~~~~~~~~0-0
Right hand parry~~~~~~~~~~~~~~~~~~~~~~~~~~~~~0-0
Default parry~~~~~~~~~~~~~~~~~~~~~~~~~~~~~16-30
Staff attack~~~~~~~~~~~~~~~~~~~~~~~~~~~~~0-0
Two hand attack~~~~~~~~~~~~~~~~~~~~~~~~~~~~~0-0
Right hand attack~~~~~~~~~~~~~~~~~~~~~~~~~~~~~0-0
Default attack~~~~~~~~~~~~~~~~~~~~~~~~~~~~~1-15
Ride run~~~~~~~~~~~~~~~~~~~~~~~~~~~~~0-0
Ride walk~~~~~~~~~~~~~~~~~~~~~~~~~~~~~0-0
Ride idle~~~~~~~~~~~~~~~~~~~~~~~~~~~~~0-0
Swim fast~~~~~~~~~~~~~~~~~~~~~~~~~~~~~0-0
Swim slow~~~~~~~~~~~~~~~~~~~~~~~~~~~~~0-0
Swim idle~~~~~~~~~~~~~~~~~~~~~~~~~~~~~0-0
Run~~~~~~~~~~~~~~~~~~~~~~~~~~~~~48-56
Walk~~~~~~~~~~~~~~~~~~~~~~~~~~~~~32-46


Anim ID: 22
Anim Set: Lizard
Stand up~~~~~~~~~~~~~~~~~~~~~~~~~~~~~0-0
Sit idle~~~~~~~~~~~~~~~~~~~~~~~~~~~~~0-0
Sit down~~~~~~~~~~~~~~~~~~~~~~~~~~~~~0-0
Look around~~~~~~~~~~~~~~~~~~~~~~~~~~~~~0-0
Yawn~~~~~~~~~~~~~~~~~~~~~~~~~~~~~0-0
Idle~~~~~~~~~~~~~~~~~~~~~~~~~~~~~75-105
Jump~~~~~~~~~~~~~~~~~~~~~~~~~~~~~0-0
Death 3~~~~~~~~~~~~~~~~~~~~~~~~~~~~~57-73
Death 2~~~~~~~~~~~~~~~~~~~~~~~~~~~~~57-73
Death 1~~~~~~~~~~~~~~~~~~~~~~~~~~~~~57-73
Hit 3~~~~~~~~~~~~~~~~~~~~~~~~~~~~~0-0
Hit 2~~~~~~~~~~~~~~~~~~~~~~~~~~~~~0-0
Hit 1~~~~~~~~~~~~~~~~~~~~~~~~~~~~~0-0
Shield parry~~~~~~~~~~~~~~~~~~~~~~~~~~~~~0-0
Staff parry~~~~~~~~~~~~~~~~~~~~~~~~~~~~~0-0
Two hand parry~~~~~~~~~~~~~~~~~~~~~~~~~~~~~0-0
Right hand parry~~~~~~~~~~~~~~~~~~~~~~~~~~~~~0-0
Default parry~~~~~~~~~~~~~~~~~~~~~~~~~~~~~17-30
Staff attack~~~~~~~~~~~~~~~~~~~~~~~~~~~~~0-0
Two hand attack~~~~~~~~~~~~~~~~~~~~~~~~~~~~~0-0
Right hand attack~~~~~~~~~~~~~~~~~~~~~~~~~~~~~0-0
Default attack~~~~~~~~~~~~~~~~~~~~~~~~~~~~~1-15
Ride run~~~~~~~~~~~~~~~~~~~~~~~~~~~~~0-0
Ride walk~~~~~~~~~~~~~~~~~~~~~~~~~~~~~0-0
Ride idle~~~~~~~~~~~~~~~~~~~~~~~~~~~~~0-0
Swim fast~~~~~~~~~~~~~~~~~~~~~~~~~~~~~0-0
Swim slow~~~~~~~~~~~~~~~~~~~~~~~~~~~~~0-0
Swim idle~~~~~~~~~~~~~~~~~~~~~~~~~~~~~0-0
Run~~~~~~~~~~~~~~~~~~~~~~~~~~~~~47-55
Walk~~~~~~~~~~~~~~~~~~~~~~~~~~~~~32-45


Anim ID: 23
Anim Set: Mutt
Stand up~~~~~~~~~~~~~~~~~~~~~~~~~~~~~0-0
Sit idle~~~~~~~~~~~~~~~~~~~~~~~~~~~~~0-0
Sit down~~~~~~~~~~~~~~~~~~~~~~~~~~~~~0-0
Look around~~~~~~~~~~~~~~~~~~~~~~~~~~~~~0-0
Yawn~~~~~~~~~~~~~~~~~~~~~~~~~~~~~0-0
Idle~~~~~~~~~~~~~~~~~~~~~~~~~~~~~71-100
Jump~~~~~~~~~~~~~~~~~~~~~~~~~~~~~0-0
Death 3~~~~~~~~~~~~~~~~~~~~~~~~~~~~~54-69
Death 2~~~~~~~~~~~~~~~~~~~~~~~~~~~~~54-69
Death 1~~~~~~~~~~~~~~~~~~~~~~~~~~~~~54-69
Hit 3~~~~~~~~~~~~~~~~~~~~~~~~~~~~~0-0
Hit 2~~~~~~~~~~~~~~~~~~~~~~~~~~~~~0-0
Hit 1~~~~~~~~~~~~~~~~~~~~~~~~~~~~~0-0
Shield parry~~~~~~~~~~~~~~~~~~~~~~~~~~~~~0-0
Staff parry~~~~~~~~~~~~~~~~~~~~~~~~~~~~~0-0
Two hand parry~~~~~~~~~~~~~~~~~~~~~~~~~~~~~0-0
Right hand parry~~~~~~~~~~~~~~~~~~~~~~~~~~~~~0-0
Default parry~~~~~~~~~~~~~~~~~~~~~~~~~~~~~17-30
Staff attack~~~~~~~~~~~~~~~~~~~~~~~~~~~~~0-0
Two hand attack~~~~~~~~~~~~~~~~~~~~~~~~~~~~~0-0
Right hand attack~~~~~~~~~~~~~~~~~~~~~~~~~~~~~0-0
Default attack~~~~~~~~~~~~~~~~~~~~~~~~~~~~~1-15
Ride run~~~~~~~~~~~~~~~~~~~~~~~~~~~~~0-0
Ride walk~~~~~~~~~~~~~~~~~~~~~~~~~~~~~0-0
Ride idle~~~~~~~~~~~~~~~~~~~~~~~~~~~~~0-0
Swim fast~~~~~~~~~~~~~~~~~~~~~~~~~~~~~0-0
Swim slow~~~~~~~~~~~~~~~~~~~~~~~~~~~~~0-0
Swim idle~~~~~~~~~~~~~~~~~~~~~~~~~~~~~0-0
Run~~~~~~~~~~~~~~~~~~~~~~~~~~~~~47-52
Walk~~~~~~~~~~~~~~~~~~~~~~~~~~~~~32-45


Anim ID: 24
Anim Set: Ox
Stand up~~~~~~~~~~~~~~~~~~~~~~~~~~~~~0-0
Sit idle~~~~~~~~~~~~~~~~~~~~~~~~~~~~~0-0
Sit down~~~~~~~~~~~~~~~~~~~~~~~~~~~~~0-0
Look around~~~~~~~~~~~~~~~~~~~~~~~~~~~~~0-0
Yawn~~~~~~~~~~~~~~~~~~~~~~~~~~~~~0-0
Idle~~~~~~~~~~~~~~~~~~~~~~~~~~~~~75-110
Jump~~~~~~~~~~~~~~~~~~~~~~~~~~~~~0-0
Death 3~~~~~~~~~~~~~~~~~~~~~~~~~~~~~55-73
Death 2~~~~~~~~~~~~~~~~~~~~~~~~~~~~~55-73
Death 1~~~~~~~~~~~~~~~~~~~~~~~~~~~~~55-73
Hit 3~~~~~~~~~~~~~~~~~~~~~~~~~~~~~0-0
Hit 2~~~~~~~~~~~~~~~~~~~~~~~~~~~~~0-0
Hit 1~~~~~~~~~~~~~~~~~~~~~~~~~~~~~0-0
Shield parry~~~~~~~~~~~~~~~~~~~~~~~~~~~~~0-0
Staff parry~~~~~~~~~~~~~~~~~~~~~~~~~~~~~0-0
Two hand parry~~~~~~~~~~~~~~~~~~~~~~~~~~~~~0-0
Right hand parry~~~~~~~~~~~~~~~~~~~~~~~~~~~~~0-0
Default parry~~~~~~~~~~~~~~~~~~~~~~~~~~~~~17-30
Staff attack~~~~~~~~~~~~~~~~~~~~~~~~~~~~~0-0
Two hand attack~~~~~~~~~~~~~~~~~~~~~~~~~~~~~0-0
Right hand attack~~~~~~~~~~~~~~~~~~~~~~~~~~~~~0-0
Default attack~~~~~~~~~~~~~~~~~~~~~~~~~~~~~1-15
Ride run~~~~~~~~~~~~~~~~~~~~~~~~~~~~~0-0
Ride walk~~~~~~~~~~~~~~~~~~~~~~~~~~~~~0-0
Ride idle~~~~~~~~~~~~~~~~~~~~~~~~~~~~~0-0
Swim fast~~~~~~~~~~~~~~~~~~~~~~~~~~~~~0-0
Swim slow~~~~~~~~~~~~~~~~~~~~~~~~~~~~~0-0
Swim idle~~~~~~~~~~~~~~~~~~~~~~~~~~~~~0-0
Run~~~~~~~~~~~~~~~~~~~~~~~~~~~~~1-15
Walk~~~~~~~~~~~~~~~~~~~~~~~~~~~~~32-45


Anim ID: 25
Anim Set: Pig
Stand up~~~~~~~~~~~~~~~~~~~~~~~~~~~~~0-0
Sit idle~~~~~~~~~~~~~~~~~~~~~~~~~~~~~0-0
Sit down~~~~~~~~~~~~~~~~~~~~~~~~~~~~~0-0
Look around~~~~~~~~~~~~~~~~~~~~~~~~~~~~~0-0
Yawn~~~~~~~~~~~~~~~~~~~~~~~~~~~~~0-0
Idle~~~~~~~~~~~~~~~~~~~~~~~~~~~~~74-110
Jump~~~~~~~~~~~~~~~~~~~~~~~~~~~~~0-0
Death 3~~~~~~~~~~~~~~~~~~~~~~~~~~~~~57-72
Death 2~~~~~~~~~~~~~~~~~~~~~~~~~~~~~57-72
Death 1~~~~~~~~~~~~~~~~~~~~~~~~~~~~~57-72
Hit 3~~~~~~~~~~~~~~~~~~~~~~~~~~~~~0-0
Hit 2~~~~~~~~~~~~~~~~~~~~~~~~~~~~~0-0
Hit 1~~~~~~~~~~~~~~~~~~~~~~~~~~~~~0-0
Shield parry~~~~~~~~~~~~~~~~~~~~~~~~~~~~~0-0
Staff parry~~~~~~~~~~~~~~~~~~~~~~~~~~~~~0-0
Two hand parry~~~~~~~~~~~~~~~~~~~~~~~~~~~~~0-0
Right hand parry~~~~~~~~~~~~~~~~~~~~~~~~~~~~~0-0
Default parry~~~~~~~~~~~~~~~~~~~~~~~~~~~~~17-28
Staff attack~~~~~~~~~~~~~~~~~~~~~~~~~~~~~0-0
Two hand attack~~~~~~~~~~~~~~~~~~~~~~~~~~~~~0-0
Right hand attack~~~~~~~~~~~~~~~~~~~~~~~~~~~~~0-0
Default attack~~~~~~~~~~~~~~~~~~~~~~~~~~~~~1-15
Ride run~~~~~~~~~~~~~~~~~~~~~~~~~~~~~0-0
Ride walk~~~~~~~~~~~~~~~~~~~~~~~~~~~~~0-0
Ride idle~~~~~~~~~~~~~~~~~~~~~~~~~~~~~0-0
Swim fast~~~~~~~~~~~~~~~~~~~~~~~~~~~~~0-0
Swim slow~~~~~~~~~~~~~~~~~~~~~~~~~~~~~0-0
Swim idle~~~~~~~~~~~~~~~~~~~~~~~~~~~~~0-0
Run~~~~~~~~~~~~~~~~~~~~~~~~~~~~~47-55
Walk~~~~~~~~~~~~~~~~~~~~~~~~~~~~~30-45


Anim ID: 26
Anim Set: Rat
Stand up~~~~~~~~~~~~~~~~~~~~~~~~~~~~~0-0
Sit idle~~~~~~~~~~~~~~~~~~~~~~~~~~~~~0-0
Sit down~~~~~~~~~~~~~~~~~~~~~~~~~~~~~0-0
Look around~~~~~~~~~~~~~~~~~~~~~~~~~~~~~0-0
Yawn~~~~~~~~~~~~~~~~~~~~~~~~~~~~~0-0
Idle~~~~~~~~~~~~~~~~~~~~~~~~~~~~~73-95
Jump~~~~~~~~~~~~~~~~~~~~~~~~~~~~~0-0
Death 3~~~~~~~~~~~~~~~~~~~~~~~~~~~~~58-70
Death 2~~~~~~~~~~~~~~~~~~~~~~~~~~~~~58-70
Death 1~~~~~~~~~~~~~~~~~~~~~~~~~~~~~58-70
Hit 3~~~~~~~~~~~~~~~~~~~~~~~~~~~~~0-0
Hit 2~~~~~~~~~~~~~~~~~~~~~~~~~~~~~0-0
Hit 1~~~~~~~~~~~~~~~~~~~~~~~~~~~~~0-0
Shield parry~~~~~~~~~~~~~~~~~~~~~~~~~~~~~0-0
Staff parry~~~~~~~~~~~~~~~~~~~~~~~~~~~~~0-0
Two hand parry~~~~~~~~~~~~~~~~~~~~~~~~~~~~~0-0
Right hand parry~~~~~~~~~~~~~~~~~~~~~~~~~~~~~0-0
Default parry~~~~~~~~~~~~~~~~~~~~~~~~~~~~~20-32
Staff attack~~~~~~~~~~~~~~~~~~~~~~~~~~~~~0-0
Two hand attack~~~~~~~~~~~~~~~~~~~~~~~~~~~~~0-0
Right hand attack~~~~~~~~~~~~~~~~~~~~~~~~~~~~~0-0
Default attack~~~~~~~~~~~~~~~~~~~~~~~~~~~~~1-18
Ride run~~~~~~~~~~~~~~~~~~~~~~~~~~~~~0-0
Ride walk~~~~~~~~~~~~~~~~~~~~~~~~~~~~~0-0
Ride idle~~~~~~~~~~~~~~~~~~~~~~~~~~~~~0-0
Swim fast~~~~~~~~~~~~~~~~~~~~~~~~~~~~~0-0
Swim slow~~~~~~~~~~~~~~~~~~~~~~~~~~~~~0-0
Swim idle~~~~~~~~~~~~~~~~~~~~~~~~~~~~~0-0
Run~~~~~~~~~~~~~~~~~~~~~~~~~~~~~51-55
Walk~~~~~~~~~~~~~~~~~~~~~~~~~~~~~34-49


Anim ID: 27
Anim Set: Sheep
Stand up~~~~~~~~~~~~~~~~~~~~~~~~~~~~~0-0
Sit idle~~~~~~~~~~~~~~~~~~~~~~~~~~~~~0-0
Sit down~~~~~~~~~~~~~~~~~~~~~~~~~~~~~0-0
Look around~~~~~~~~~~~~~~~~~~~~~~~~~~~~~0-0
Yawn~~~~~~~~~~~~~~~~~~~~~~~~~~~~~0-0
Idle~~~~~~~~~~~~~~~~~~~~~~~~~~~~~75-105
Jump~~~~~~~~~~~~~~~~~~~~~~~~~~~~~0-0
Death 3~~~~~~~~~~~~~~~~~~~~~~~~~~~~~57-73
Death 2~~~~~~~~~~~~~~~~~~~~~~~~~~~~~57-73
Death 1~~~~~~~~~~~~~~~~~~~~~~~~~~~~~57-73
Hit 3~~~~~~~~~~~~~~~~~~~~~~~~~~~~~0-0
Hit 2~~~~~~~~~~~~~~~~~~~~~~~~~~~~~0-0
Hit 1~~~~~~~~~~~~~~~~~~~~~~~~~~~~~0-0
Shield parry~~~~~~~~~~~~~~~~~~~~~~~~~~~~~0-0
Staff parry~~~~~~~~~~~~~~~~~~~~~~~~~~~~~0-0
Two hand parry~~~~~~~~~~~~~~~~~~~~~~~~~~~~~0-0
Right hand parry~~~~~~~~~~~~~~~~~~~~~~~~~~~~~0-0
Default parry~~~~~~~~~~~~~~~~~~~~~~~~~~~~~17-29
Staff attack~~~~~~~~~~~~~~~~~~~~~~~~~~~~~0-0
Two hand attack~~~~~~~~~~~~~~~~~~~~~~~~~~~~~0-0
Right hand attack~~~~~~~~~~~~~~~~~~~~~~~~~~~~~0-0
Default attack~~~~~~~~~~~~~~~~~~~~~~~~~~~~~1-15
Ride run~~~~~~~~~~~~~~~~~~~~~~~~~~~~~0-0
Ride walk~~~~~~~~~~~~~~~~~~~~~~~~~~~~~0-0
Ride idle~~~~~~~~~~~~~~~~~~~~~~~~~~~~~0-0
Swim fast~~~~~~~~~~~~~~~~~~~~~~~~~~~~~0-0
Swim slow~~~~~~~~~~~~~~~~~~~~~~~~~~~~~0-0
Swim idle~~~~~~~~~~~~~~~~~~~~~~~~~~~~~0-0
Run~~~~~~~~~~~~~~~~~~~~~~~~~~~~~49-55
Walk~~~~~~~~~~~~~~~~~~~~~~~~~~~~~31-47


Anim ID: 28
Anim Set: Snake
Stand up~~~~~~~~~~~~~~~~~~~~~~~~~~~~~0-0
Sit idle~~~~~~~~~~~~~~~~~~~~~~~~~~~~~0-0
Sit down~~~~~~~~~~~~~~~~~~~~~~~~~~~~~0-0
Look around~~~~~~~~~~~~~~~~~~~~~~~~~~~~~0-0
Yawn~~~~~~~~~~~~~~~~~~~~~~~~~~~~~0-0
Idle~~~~~~~~~~~~~~~~~~~~~~~~~~~~~83-115
Jump~~~~~~~~~~~~~~~~~~~~~~~~~~~~~0-0
Death 3~~~~~~~~~~~~~~~~~~~~~~~~~~~~~67-81
Death 2~~~~~~~~~~~~~~~~~~~~~~~~~~~~~67-81
Death 1~~~~~~~~~~~~~~~~~~~~~~~~~~~~~67-81
Hit 3~~~~~~~~~~~~~~~~~~~~~~~~~~~~~0-0
Hit 2~~~~~~~~~~~~~~~~~~~~~~~~~~~~~0-0
Hit 1~~~~~~~~~~~~~~~~~~~~~~~~~~~~~0-0
Shield parry~~~~~~~~~~~~~~~~~~~~~~~~~~~~~0-0
Staff parry~~~~~~~~~~~~~~~~~~~~~~~~~~~~~0-0
Two hand parry~~~~~~~~~~~~~~~~~~~~~~~~~~~~~0-0
Right hand parry~~~~~~~~~~~~~~~~~~~~~~~~~~~~~0-0
Default parry~~~~~~~~~~~~~~~~~~~~~~~~~~~~~16-30
Staff attack~~~~~~~~~~~~~~~~~~~~~~~~~~~~~0-0
Two hand attack~~~~~~~~~~~~~~~~~~~~~~~~~~~~~0-0
Right hand attack~~~~~~~~~~~~~~~~~~~~~~~~~~~~~0-0
Default attack~~~~~~~~~~~~~~~~~~~~~~~~~~~~~1-15
Ride run~~~~~~~~~~~~~~~~~~~~~~~~~~~~~0-0
Ride walk~~~~~~~~~~~~~~~~~~~~~~~~~~~~~0-0
Ride idle~~~~~~~~~~~~~~~~~~~~~~~~~~~~~0-0
Swim fast~~~~~~~~~~~~~~~~~~~~~~~~~~~~~0-0
Swim slow~~~~~~~~~~~~~~~~~~~~~~~~~~~~~0-0
Swim idle~~~~~~~~~~~~~~~~~~~~~~~~~~~~~0-0
Run~~~~~~~~~~~~~~~~~~~~~~~~~~~~~52-67
Walk~~~~~~~~~~~~~~~~~~~~~~~~~~~~~32-50


Anim ID: 29
Anim Set: Spider
Stand up~~~~~~~~~~~~~~~~~~~~~~~~~~~~~0-0
Sit idle~~~~~~~~~~~~~~~~~~~~~~~~~~~~~0-0
Sit down~~~~~~~~~~~~~~~~~~~~~~~~~~~~~0-0
Look around~~~~~~~~~~~~~~~~~~~~~~~~~~~~~0-0
Yawn~~~~~~~~~~~~~~~~~~~~~~~~~~~~~0-0
Idle~~~~~~~~~~~~~~~~~~~~~~~~~~~~~66-84
Jump~~~~~~~~~~~~~~~~~~~~~~~~~~~~~0-0
Death 3~~~~~~~~~~~~~~~~~~~~~~~~~~~~~48-64
Death 2~~~~~~~~~~~~~~~~~~~~~~~~~~~~~48-64
Death 1~~~~~~~~~~~~~~~~~~~~~~~~~~~~~48-64
Hit 3~~~~~~~~~~~~~~~~~~~~~~~~~~~~~0-0
Hit 2~~~~~~~~~~~~~~~~~~~~~~~~~~~~~0-0
Hit 1~~~~~~~~~~~~~~~~~~~~~~~~~~~~~0-0
Shield parry~~~~~~~~~~~~~~~~~~~~~~~~~~~~~0-0
Staff parry~~~~~~~~~~~~~~~~~~~~~~~~~~~~~0-0
Two hand parry~~~~~~~~~~~~~~~~~~~~~~~~~~~~~0-0
Right hand parry~~~~~~~~~~~~~~~~~~~~~~~~~~~~~0-0
Default parry~~~~~~~~~~~~~~~~~~~~~~~~~~~~~16-30
Staff attack~~~~~~~~~~~~~~~~~~~~~~~~~~~~~0-0
Two hand attack~~~~~~~~~~~~~~~~~~~~~~~~~~~~~0-0
Right hand attack~~~~~~~~~~~~~~~~~~~~~~~~~~~~~0-0
Default attack~~~~~~~~~~~~~~~~~~~~~~~~~~~~~1-15
Ride run~~~~~~~~~~~~~~~~~~~~~~~~~~~~~0-0
Ride walk~~~~~~~~~~~~~~~~~~~~~~~~~~~~~0-0
Ride idle~~~~~~~~~~~~~~~~~~~~~~~~~~~~~0-0
Swim fast~~~~~~~~~~~~~~~~~~~~~~~~~~~~~0-0
Swim slow~~~~~~~~~~~~~~~~~~~~~~~~~~~~~0-0
Swim idle~~~~~~~~~~~~~~~~~~~~~~~~~~~~~0-0
Run~~~~~~~~~~~~~~~~~~~~~~~~~~~~~42-46
Walk~~~~~~~~~~~~~~~~~~~~~~~~~~~~~31-41


Anim ID: 30
Anim Set: Wolf
Stand up~~~~~~~~~~~~~~~~~~~~~~~~~~~~~0-0
Sit idle~~~~~~~~~~~~~~~~~~~~~~~~~~~~~0-0
Sit down~~~~~~~~~~~~~~~~~~~~~~~~~~~~~0-0
Look around~~~~~~~~~~~~~~~~~~~~~~~~~~~~~0-0
Yawn~~~~~~~~~~~~~~~~~~~~~~~~~~~~~0-0
Idle~~~~~~~~~~~~~~~~~~~~~~~~~~~~~73-105
Jump~~~~~~~~~~~~~~~~~~~~~~~~~~~~~0-0
Death 3~~~~~~~~~~~~~~~~~~~~~~~~~~~~~55-71
Death 2~~~~~~~~~~~~~~~~~~~~~~~~~~~~~55-71
Death 1~~~~~~~~~~~~~~~~~~~~~~~~~~~~~55-71
Hit 3~~~~~~~~~~~~~~~~~~~~~~~~~~~~~0-0
Hit 2~~~~~~~~~~~~~~~~~~~~~~~~~~~~~0-0
Hit 1~~~~~~~~~~~~~~~~~~~~~~~~~~~~~0-0
Shield parry~~~~~~~~~~~~~~~~~~~~~~~~~~~~~0-0
Staff parry~~~~~~~~~~~~~~~~~~~~~~~~~~~~~0-0
Two hand parry~~~~~~~~~~~~~~~~~~~~~~~~~~~~~0-0
Right hand parry~~~~~~~~~~~~~~~~~~~~~~~~~~~~~0-0
Default parry~~~~~~~~~~~~~~~~~~~~~~~~~~~~~17-30
Staff attack~~~~~~~~~~~~~~~~~~~~~~~~~~~~~0-0
Two hand attack~~~~~~~~~~~~~~~~~~~~~~~~~~~~~0-0
Right hand attack~~~~~~~~~~~~~~~~~~~~~~~~~~~~~0-0
Default attack~~~~~~~~~~~~~~~~~~~~~~~~~~~~~1-15
Ride run~~~~~~~~~~~~~~~~~~~~~~~~~~~~~0-0
Ride walk~~~~~~~~~~~~~~~~~~~~~~~~~~~~~0-0
Ride idle~~~~~~~~~~~~~~~~~~~~~~~~~~~~~0-0
Swim fast~~~~~~~~~~~~~~~~~~~~~~~~~~~~~0-0
Swim slow~~~~~~~~~~~~~~~~~~~~~~~~~~~~~0-0
Swim idle~~~~~~~~~~~~~~~~~~~~~~~~~~~~~0-0
Run~~~~~~~~~~~~~~~~~~~~~~~~~~~~~47-53
Walk~~~~~~~~~~~~~~~~~~~~~~~~~~~~~32-45


Anim ID: 31
Anim Set: Wyrm
Stand up~~~~~~~~~~~~~~~~~~~~~~~~~~~~~0-0
Sit idle~~~~~~~~~~~~~~~~~~~~~~~~~~~~~0-0
Sit down~~~~~~~~~~~~~~~~~~~~~~~~~~~~~0-0
Look around~~~~~~~~~~~~~~~~~~~~~~~~~~~~~0-0
Yawn~~~~~~~~~~~~~~~~~~~~~~~~~~~~~0-0
Idle~~~~~~~~~~~~~~~~~~~~~~~~~~~~~10-41
Jump~~~~~~~~~~~~~~~~~~~~~~~~~~~~~0-0
Death 3~~~~~~~~~~~~~~~~~~~~~~~~~~~~~0-0
Death 2~~~~~~~~~~~~~~~~~~~~~~~~~~~~~0-0
Death 1~~~~~~~~~~~~~~~~~~~~~~~~~~~~~0-0
Hit 3~~~~~~~~~~~~~~~~~~~~~~~~~~~~~0-0
Hit 2~~~~~~~~~~~~~~~~~~~~~~~~~~~~~0-0
Hit 1~~~~~~~~~~~~~~~~~~~~~~~~~~~~~0-0
Shield parry~~~~~~~~~~~~~~~~~~~~~~~~~~~~~0-0
Staff parry~~~~~~~~~~~~~~~~~~~~~~~~~~~~~0-0
Two hand parry~~~~~~~~~~~~~~~~~~~~~~~~~~~~~0-0
Right hand parry~~~~~~~~~~~~~~~~~~~~~~~~~~~~~0-0
Default parry~~~~~~~~~~~~~~~~~~~~~~~~~~~~~10-41
Staff attack~~~~~~~~~~~~~~~~~~~~~~~~~~~~~0-0
Two hand attack~~~~~~~~~~~~~~~~~~~~~~~~~~~~~0-0
Right hand attack~~~~~~~~~~~~~~~~~~~~~~~~~~~~~0-0
Default attack~~~~~~~~~~~~~~~~~~~~~~~~~~~~~10-23
Ride run~~~~~~~~~~~~~~~~~~~~~~~~~~~~~0-0
Ride walk~~~~~~~~~~~~~~~~~~~~~~~~~~~~~0-0
Ride idle~~~~~~~~~~~~~~~~~~~~~~~~~~~~~0-0
Swim fast~~~~~~~~~~~~~~~~~~~~~~~~~~~~~0-0
Swim slow~~~~~~~~~~~~~~~~~~~~~~~~~~~~~0-0
Swim idle~~~~~~~~~~~~~~~~~~~~~~~~~~~~~0-0
Run~~~~~~~~~~~~~~~~~~~~~~~~~~~~~10-15
Walk~~~~~~~~~~~~~~~~~~~~~~~~~~~~~10-41


Anim ID: 32
Anim Set: Fiend
Stand up~~~~~~~~~~~~~~~~~~~~~~~~~~~~~0-0
Sit idle~~~~~~~~~~~~~~~~~~~~~~~~~~~~~0-0
Sit down~~~~~~~~~~~~~~~~~~~~~~~~~~~~~0-0
Look around~~~~~~~~~~~~~~~~~~~~~~~~~~~~~0-0
Yawn~~~~~~~~~~~~~~~~~~~~~~~~~~~~~0-0
Idle~~~~~~~~~~~~~~~~~~~~~~~~~~~~~25-50
Jump~~~~~~~~~~~~~~~~~~~~~~~~~~~~~25-50
Death 3~~~~~~~~~~~~~~~~~~~~~~~~~~~~~102-110
Death 2~~~~~~~~~~~~~~~~~~~~~~~~~~~~~92-100
Death 1~~~~~~~~~~~~~~~~~~~~~~~~~~~~~84-90
Hit 3~~~~~~~~~~~~~~~~~~~~~~~~~~~~~0-0
Hit 2~~~~~~~~~~~~~~~~~~~~~~~~~~~~~0-0
Hit 1~~~~~~~~~~~~~~~~~~~~~~~~~~~~~0-0
Shield parry~~~~~~~~~~~~~~~~~~~~~~~~~~~~~0-0
Staff parry~~~~~~~~~~~~~~~~~~~~~~~~~~~~~0-0
Two hand parry~~~~~~~~~~~~~~~~~~~~~~~~~~~~~0-0
Right hand parry~~~~~~~~~~~~~~~~~~~~~~~~~~~~~0-0
Default parry~~~~~~~~~~~~~~~~~~~~~~~~~~~~~0-0
Staff attack~~~~~~~~~~~~~~~~~~~~~~~~~~~~~76-83
Two hand attack~~~~~~~~~~~~~~~~~~~~~~~~~~~~~76-83
Right hand attack~~~~~~~~~~~~~~~~~~~~~~~~~~~~~68-75
Default attack~~~~~~~~~~~~~~~~~~~~~~~~~~~~~52-66
Ride run~~~~~~~~~~~~~~~~~~~~~~~~~~~~~0-0
Ride walk~~~~~~~~~~~~~~~~~~~~~~~~~~~~~0-0
Ride idle~~~~~~~~~~~~~~~~~~~~~~~~~~~~~0-0
Swim fast~~~~~~~~~~~~~~~~~~~~~~~~~~~~~0-0
Swim slow~~~~~~~~~~~~~~~~~~~~~~~~~~~~~0-0
Swim idle~~~~~~~~~~~~~~~~~~~~~~~~~~~~~0-0
Run~~~~~~~~~~~~~~~~~~~~~~~~~~~~~15-23
Walk~~~~~~~~~~~~~~~~~~~~~~~~~~~~~1-13


Anim ID: 33
Anim Set: Flesh Golem
Stand up~~~~~~~~~~~~~~~~~~~~~~~~~~~~~0-0
Sit idle~~~~~~~~~~~~~~~~~~~~~~~~~~~~~0-0
Sit down~~~~~~~~~~~~~~~~~~~~~~~~~~~~~0-0
Look around~~~~~~~~~~~~~~~~~~~~~~~~~~~~~0-0
Yawn~~~~~~~~~~~~~~~~~~~~~~~~~~~~~0-0
Idle~~~~~~~~~~~~~~~~~~~~~~~~~~~~~25-45
Jump~~~~~~~~~~~~~~~~~~~~~~~~~~~~~25-45
Death 3~~~~~~~~~~~~~~~~~~~~~~~~~~~~~109-117
Death 2~~~~~~~~~~~~~~~~~~~~~~~~~~~~~96-107
Death 1~~~~~~~~~~~~~~~~~~~~~~~~~~~~~83-94
Hit 3~~~~~~~~~~~~~~~~~~~~~~~~~~~~~0-0
Hit 2~~~~~~~~~~~~~~~~~~~~~~~~~~~~~0-0
Hit 1~~~~~~~~~~~~~~~~~~~~~~~~~~~~~0-0
Shield parry~~~~~~~~~~~~~~~~~~~~~~~~~~~~~0-0
Staff parry~~~~~~~~~~~~~~~~~~~~~~~~~~~~~0-0
Two hand parry~~~~~~~~~~~~~~~~~~~~~~~~~~~~~0-0
Right hand parry~~~~~~~~~~~~~~~~~~~~~~~~~~~~~0-0
Default parry~~~~~~~~~~~~~~~~~~~~~~~~~~~~~0-0
Staff attack~~~~~~~~~~~~~~~~~~~~~~~~~~~~~61-69
Two hand attack~~~~~~~~~~~~~~~~~~~~~~~~~~~~~61-69
Right hand attack~~~~~~~~~~~~~~~~~~~~~~~~~~~~~71-81
Default attack~~~~~~~~~~~~~~~~~~~~~~~~~~~~~47-59
Ride run~~~~~~~~~~~~~~~~~~~~~~~~~~~~~0-0
Ride walk~~~~~~~~~~~~~~~~~~~~~~~~~~~~~0-0
Ride idle~~~~~~~~~~~~~~~~~~~~~~~~~~~~~0-0
Swim fast~~~~~~~~~~~~~~~~~~~~~~~~~~~~~0-0
Swim slow~~~~~~~~~~~~~~~~~~~~~~~~~~~~~0-0
Swim idle~~~~~~~~~~~~~~~~~~~~~~~~~~~~~0-0
Run~~~~~~~~~~~~~~~~~~~~~~~~~~~~~15-23
Walk~~~~~~~~~~~~~~~~~~~~~~~~~~~~~1-13


Anim ID: 34
Anim Set: Ghoul
Stand up~~~~~~~~~~~~~~~~~~~~~~~~~~~~~0-0
Sit idle~~~~~~~~~~~~~~~~~~~~~~~~~~~~~0-0
Sit down~~~~~~~~~~~~~~~~~~~~~~~~~~~~~0-0
Look around~~~~~~~~~~~~~~~~~~~~~~~~~~~~~0-0
Yawn~~~~~~~~~~~~~~~~~~~~~~~~~~~~~0-0
Idle~~~~~~~~~~~~~~~~~~~~~~~~~~~~~25-45
Jump~~~~~~~~~~~~~~~~~~~~~~~~~~~~~0-0
Death 3~~~~~~~~~~~~~~~~~~~~~~~~~~~~~18-104
Death 2~~~~~~~~~~~~~~~~~~~~~~~~~~~~~87-96
Death 1~~~~~~~~~~~~~~~~~~~~~~~~~~~~~76-85
Hit 3~~~~~~~~~~~~~~~~~~~~~~~~~~~~~0-0
Hit 2~~~~~~~~~~~~~~~~~~~~~~~~~~~~~0-0
Hit 1~~~~~~~~~~~~~~~~~~~~~~~~~~~~~0-0
Shield parry~~~~~~~~~~~~~~~~~~~~~~~~~~~~~0-0
Staff parry~~~~~~~~~~~~~~~~~~~~~~~~~~~~~0-0
Two hand parry~~~~~~~~~~~~~~~~~~~~~~~~~~~~~0-0
Right hand parry~~~~~~~~~~~~~~~~~~~~~~~~~~~~~0-0
Default parry~~~~~~~~~~~~~~~~~~~~~~~~~~~~~0-0
Staff attack~~~~~~~~~~~~~~~~~~~~~~~~~~~~~68-75
Two hand attack~~~~~~~~~~~~~~~~~~~~~~~~~~~~~68-75
Right hand attack~~~~~~~~~~~~~~~~~~~~~~~~~~~~~61-67
Default attack~~~~~~~~~~~~~~~~~~~~~~~~~~~~~49-60
Ride run~~~~~~~~~~~~~~~~~~~~~~~~~~~~~0-0
Ride walk~~~~~~~~~~~~~~~~~~~~~~~~~~~~~0-0
Ride idle~~~~~~~~~~~~~~~~~~~~~~~~~~~~~0-0
Swim fast~~~~~~~~~~~~~~~~~~~~~~~~~~~~~0-0
Swim slow~~~~~~~~~~~~~~~~~~~~~~~~~~~~~0-0
Swim idle~~~~~~~~~~~~~~~~~~~~~~~~~~~~~0-0
Run~~~~~~~~~~~~~~~~~~~~~~~~~~~~~15-23
Walk~~~~~~~~~~~~~~~~~~~~~~~~~~~~~1-13


Anim ID: 35
Anim Set: Lich Lord
Stand up~~~~~~~~~~~~~~~~~~~~~~~~~~~~~0-0
Sit idle~~~~~~~~~~~~~~~~~~~~~~~~~~~~~0-0
Sit down~~~~~~~~~~~~~~~~~~~~~~~~~~~~~0-0
Look around~~~~~~~~~~~~~~~~~~~~~~~~~~~~~0-0
Yawn~~~~~~~~~~~~~~~~~~~~~~~~~~~~~0-0
Idle~~~~~~~~~~~~~~~~~~~~~~~~~~~~~25-45
Jump~~~~~~~~~~~~~~~~~~~~~~~~~~~~~25-45
Death 3~~~~~~~~~~~~~~~~~~~~~~~~~~~~~99-110
Death 2~~~~~~~~~~~~~~~~~~~~~~~~~~~~~88-97
Death 1~~~~~~~~~~~~~~~~~~~~~~~~~~~~~78-86
Hit 3~~~~~~~~~~~~~~~~~~~~~~~~~~~~~0-0
Hit 2~~~~~~~~~~~~~~~~~~~~~~~~~~~~~0-0
Hit 1~~~~~~~~~~~~~~~~~~~~~~~~~~~~~0-0
Shield parry~~~~~~~~~~~~~~~~~~~~~~~~~~~~~0-0
Staff parry~~~~~~~~~~~~~~~~~~~~~~~~~~~~~0-0
Two hand parry~~~~~~~~~~~~~~~~~~~~~~~~~~~~~0-0
Right hand parry~~~~~~~~~~~~~~~~~~~~~~~~~~~~~0-0
Default parry~~~~~~~~~~~~~~~~~~~~~~~~~~~~~0-0
Staff attack~~~~~~~~~~~~~~~~~~~~~~~~~~~~~70-76
Two hand attack~~~~~~~~~~~~~~~~~~~~~~~~~~~~~70-76
Right hand attack~~~~~~~~~~~~~~~~~~~~~~~~~~~~~62-69
Default attack~~~~~~~~~~~~~~~~~~~~~~~~~~~~~47-60
Ride run~~~~~~~~~~~~~~~~~~~~~~~~~~~~~0-0
Ride walk~~~~~~~~~~~~~~~~~~~~~~~~~~~~~0-0
Ride idle~~~~~~~~~~~~~~~~~~~~~~~~~~~~~0-0
Swim fast~~~~~~~~~~~~~~~~~~~~~~~~~~~~~0-0
Swim slow~~~~~~~~~~~~~~~~~~~~~~~~~~~~~0-0
Swim idle~~~~~~~~~~~~~~~~~~~~~~~~~~~~~0-0
Run~~~~~~~~~~~~~~~~~~~~~~~~~~~~~15-23
Walk~~~~~~~~~~~~~~~~~~~~~~~~~~~~~1-13


Anim ID: 36
Anim Set: Ogre
Stand up~~~~~~~~~~~~~~~~~~~~~~~~~~~~~0-0
Sit idle~~~~~~~~~~~~~~~~~~~~~~~~~~~~~0-0
Sit down~~~~~~~~~~~~~~~~~~~~~~~~~~~~~0-0
Look around~~~~~~~~~~~~~~~~~~~~~~~~~~~~~0-0
Yawn~~~~~~~~~~~~~~~~~~~~~~~~~~~~~0-0
Idle~~~~~~~~~~~~~~~~~~~~~~~~~~~~~25-45
Jump~~~~~~~~~~~~~~~~~~~~~~~~~~~~~25-45
Death 3~~~~~~~~~~~~~~~~~~~~~~~~~~~~~111-121
Death 2~~~~~~~~~~~~~~~~~~~~~~~~~~~~~96-109
Death 1~~~~~~~~~~~~~~~~~~~~~~~~~~~~~81-94
Hit 3~~~~~~~~~~~~~~~~~~~~~~~~~~~~~0-0
Hit 2~~~~~~~~~~~~~~~~~~~~~~~~~~~~~0-0
Hit 1~~~~~~~~~~~~~~~~~~~~~~~~~~~~~0-0
Shield parry~~~~~~~~~~~~~~~~~~~~~~~~~~~~~0-0
Staff parry~~~~~~~~~~~~~~~~~~~~~~~~~~~~~0-0
Two hand parry~~~~~~~~~~~~~~~~~~~~~~~~~~~~~0-0
Right hand parry~~~~~~~~~~~~~~~~~~~~~~~~~~~~~0-0
Default parry~~~~~~~~~~~~~~~~~~~~~~~~~~~~~0-0
Staff attack~~~~~~~~~~~~~~~~~~~~~~~~~~~~~71-79
Two hand attack~~~~~~~~~~~~~~~~~~~~~~~~~~~~~71-79
Right hand attack~~~~~~~~~~~~~~~~~~~~~~~~~~~~~62-69
Default attack~~~~~~~~~~~~~~~~~~~~~~~~~~~~~47-60
Ride run~~~~~~~~~~~~~~~~~~~~~~~~~~~~~0-0
Ride walk~~~~~~~~~~~~~~~~~~~~~~~~~~~~~0-0
Ride idle~~~~~~~~~~~~~~~~~~~~~~~~~~~~~0-0
Swim fast~~~~~~~~~~~~~~~~~~~~~~~~~~~~~0-0
Swim slow~~~~~~~~~~~~~~~~~~~~~~~~~~~~~0-0
Swim idle~~~~~~~~~~~~~~~~~~~~~~~~~~~~~0-0
Run~~~~~~~~~~~~~~~~~~~~~~~~~~~~~15-23
Walk~~~~~~~~~~~~~~~~~~~~~~~~~~~~~1-13


Anim ID: 37
Anim Set: Orc
Stand up~~~~~~~~~~~~~~~~~~~~~~~~~~~~~0-0
Sit idle~~~~~~~~~~~~~~~~~~~~~~~~~~~~~0-0
Sit down~~~~~~~~~~~~~~~~~~~~~~~~~~~~~0-0
Look around~~~~~~~~~~~~~~~~~~~~~~~~~~~~~0-0
Yawn~~~~~~~~~~~~~~~~~~~~~~~~~~~~~0-0
Idle~~~~~~~~~~~~~~~~~~~~~~~~~~~~~25-45
Jump~~~~~~~~~~~~~~~~~~~~~~~~~~~~~25-45
Death 3~~~~~~~~~~~~~~~~~~~~~~~~~~~~~104-110
Death 2~~~~~~~~~~~~~~~~~~~~~~~~~~~~~90-102
Death 1~~~~~~~~~~~~~~~~~~~~~~~~~~~~~79-88
Hit 3~~~~~~~~~~~~~~~~~~~~~~~~~~~~~0-0
Hit 2~~~~~~~~~~~~~~~~~~~~~~~~~~~~~0-0
Hit 1~~~~~~~~~~~~~~~~~~~~~~~~~~~~~0-0
Shield parry~~~~~~~~~~~~~~~~~~~~~~~~~~~~~0-0
Staff parry~~~~~~~~~~~~~~~~~~~~~~~~~~~~~0-0
Two hand parry~~~~~~~~~~~~~~~~~~~~~~~~~~~~~0-0
Right hand parry~~~~~~~~~~~~~~~~~~~~~~~~~~~~~0-0
Default parry~~~~~~~~~~~~~~~~~~~~~~~~~~~~~0-0
Staff attack~~~~~~~~~~~~~~~~~~~~~~~~~~~~~70-77
Two hand attack~~~~~~~~~~~~~~~~~~~~~~~~~~~~~70-77
Right hand attack~~~~~~~~~~~~~~~~~~~~~~~~~~~~~62-69
Default attack~~~~~~~~~~~~~~~~~~~~~~~~~~~~~47-60
Ride run~~~~~~~~~~~~~~~~~~~~~~~~~~~~~0-0
Ride walk~~~~~~~~~~~~~~~~~~~~~~~~~~~~~0-0
Ride idle~~~~~~~~~~~~~~~~~~~~~~~~~~~~~0-0
Swim fast~~~~~~~~~~~~~~~~~~~~~~~~~~~~~0-0
Swim slow~~~~~~~~~~~~~~~~~~~~~~~~~~~~~0-0
Swim idle~~~~~~~~~~~~~~~~~~~~~~~~~~~~~0-0
Run~~~~~~~~~~~~~~~~~~~~~~~~~~~~~15-23
Walk~~~~~~~~~~~~~~~~~~~~~~~~~~~~~1-13


Anim ID: 38
Anim Set: Spectre
Stand up~~~~~~~~~~~~~~~~~~~~~~~~~~~~~0-0
Sit idle~~~~~~~~~~~~~~~~~~~~~~~~~~~~~0-0
Sit down~~~~~~~~~~~~~~~~~~~~~~~~~~~~~0-0
Look around~~~~~~~~~~~~~~~~~~~~~~~~~~~~~0-0
Yawn~~~~~~~~~~~~~~~~~~~~~~~~~~~~~0-0
Idle~~~~~~~~~~~~~~~~~~~~~~~~~~~~~25-45
Jump~~~~~~~~~~~~~~~~~~~~~~~~~~~~~25-45
Death 3~~~~~~~~~~~~~~~~~~~~~~~~~~~~~106-116
Death 2~~~~~~~~~~~~~~~~~~~~~~~~~~~~~93-104
Death 1~~~~~~~~~~~~~~~~~~~~~~~~~~~~~82-91
Hit 3~~~~~~~~~~~~~~~~~~~~~~~~~~~~~0-0
Hit 2~~~~~~~~~~~~~~~~~~~~~~~~~~~~~0-0
Hit 1~~~~~~~~~~~~~~~~~~~~~~~~~~~~~0-0
Shield parry~~~~~~~~~~~~~~~~~~~~~~~~~~~~~0-0
Staff parry~~~~~~~~~~~~~~~~~~~~~~~~~~~~~0-0
Two hand parry~~~~~~~~~~~~~~~~~~~~~~~~~~~~~0-0
Right hand parry~~~~~~~~~~~~~~~~~~~~~~~~~~~~~0-0
Default parry~~~~~~~~~~~~~~~~~~~~~~~~~~~~~0-0
Staff attack~~~~~~~~~~~~~~~~~~~~~~~~~~~~~71-80
Two hand attack~~~~~~~~~~~~~~~~~~~~~~~~~~~~~71-80
Right hand attack~~~~~~~~~~~~~~~~~~~~~~~~~~~~~63-69
Default attack~~~~~~~~~~~~~~~~~~~~~~~~~~~~~47-62
Ride run~~~~~~~~~~~~~~~~~~~~~~~~~~~~~0-0
Ride walk~~~~~~~~~~~~~~~~~~~~~~~~~~~~~0-0
Ride idle~~~~~~~~~~~~~~~~~~~~~~~~~~~~~0-0
Swim fast~~~~~~~~~~~~~~~~~~~~~~~~~~~~~0-0
Swim slow~~~~~~~~~~~~~~~~~~~~~~~~~~~~~0-0
Swim idle~~~~~~~~~~~~~~~~~~~~~~~~~~~~~0-0
Run~~~~~~~~~~~~~~~~~~~~~~~~~~~~~15-23
Walk~~~~~~~~~~~~~~~~~~~~~~~~~~~~~1-13


Anim ID: 39
Anim Set: Troll
Stand up~~~~~~~~~~~~~~~~~~~~~~~~~~~~~0-0
Sit idle~~~~~~~~~~~~~~~~~~~~~~~~~~~~~0-0
Sit down~~~~~~~~~~~~~~~~~~~~~~~~~~~~~0-0
Look around~~~~~~~~~~~~~~~~~~~~~~~~~~~~~0-0
Yawn~~~~~~~~~~~~~~~~~~~~~~~~~~~~~0-0
Idle~~~~~~~~~~~~~~~~~~~~~~~~~~~~~25-45
Jump~~~~~~~~~~~~~~~~~~~~~~~~~~~~~25-45
Death 3~~~~~~~~~~~~~~~~~~~~~~~~~~~~~102-109
Death 2~~~~~~~~~~~~~~~~~~~~~~~~~~~~~88-100
Death 1~~~~~~~~~~~~~~~~~~~~~~~~~~~~~76-86
Hit 3~~~~~~~~~~~~~~~~~~~~~~~~~~~~~0-0
Hit 2~~~~~~~~~~~~~~~~~~~~~~~~~~~~~0-0
Hit 1~~~~~~~~~~~~~~~~~~~~~~~~~~~~~0-0
Shield parry~~~~~~~~~~~~~~~~~~~~~~~~~~~~~0-0
Staff parry~~~~~~~~~~~~~~~~~~~~~~~~~~~~~0-0
Two hand parry~~~~~~~~~~~~~~~~~~~~~~~~~~~~~0-0
Right hand parry~~~~~~~~~~~~~~~~~~~~~~~~~~~~~0-0
Default parry~~~~~~~~~~~~~~~~~~~~~~~~~~~~~0-0
Staff attack~~~~~~~~~~~~~~~~~~~~~~~~~~~~~68-74
Two hand attack~~~~~~~~~~~~~~~~~~~~~~~~~~~~~68-74
Right hand attack~~~~~~~~~~~~~~~~~~~~~~~~~~~~~60-67
Default attack~~~~~~~~~~~~~~~~~~~~~~~~~~~~~47-58
Ride run~~~~~~~~~~~~~~~~~~~~~~~~~~~~~0-0
Ride walk~~~~~~~~~~~~~~~~~~~~~~~~~~~~~0-0
Ride idle~~~~~~~~~~~~~~~~~~~~~~~~~~~~~0-0
Swim fast~~~~~~~~~~~~~~~~~~~~~~~~~~~~~0-0
Swim slow~~~~~~~~~~~~~~~~~~~~~~~~~~~~~0-0
Swim idle~~~~~~~~~~~~~~~~~~~~~~~~~~~~~0-0
Run~~~~~~~~~~~~~~~~~~~~~~~~~~~~~15-23
Walk~~~~~~~~~~~~~~~~~~~~~~~~~~~~~1-13


Anim ID: 40
Anim Set: Horse
Stand up~~~~~~~~~~~~~~~~~~~~~~~~~~~~~0-0
Sit idle~~~~~~~~~~~~~~~~~~~~~~~~~~~~~0-0
Sit down~~~~~~~~~~~~~~~~~~~~~~~~~~~~~0-0
Look around~~~~~~~~~~~~~~~~~~~~~~~~~~~~~0-0
Yawn~~~~~~~~~~~~~~~~~~~~~~~~~~~~~340-401
Idle~~~~~~~~~~~~~~~~~~~~~~~~~~~~~170-261
Jump~~~~~~~~~~~~~~~~~~~~~~~~~~~~~170-261
Death 3~~~~~~~~~~~~~~~~~~~~~~~~~~~~~0-0
Death 2~~~~~~~~~~~~~~~~~~~~~~~~~~~~~0-0
Death 1~~~~~~~~~~~~~~~~~~~~~~~~~~~~~0-0
Hit 3~~~~~~~~~~~~~~~~~~~~~~~~~~~~~0-0
Hit 2~~~~~~~~~~~~~~~~~~~~~~~~~~~~~0-0
Hit 1~~~~~~~~~~~~~~~~~~~~~~~~~~~~~0-0
Shield parry~~~~~~~~~~~~~~~~~~~~~~~~~~~~~0-0
Staff parry~~~~~~~~~~~~~~~~~~~~~~~~~~~~~0-0
Two hand parry~~~~~~~~~~~~~~~~~~~~~~~~~~~~~0-0
Right hand parry~~~~~~~~~~~~~~~~~~~~~~~~~~~~~0-0
Default parry~~~~~~~~~~~~~~~~~~~~~~~~~~~~~0-66
Staff attack~~~~~~~~~~~~~~~~~~~~~~~~~~~~~0-0
Two hand attack~~~~~~~~~~~~~~~~~~~~~~~~~~~~~0-0
Right hand attack~~~~~~~~~~~~~~~~~~~~~~~~~~~~~0-0
Default attack~~~~~~~~~~~~~~~~~~~~~~~~~~~~~0-66
Ride run~~~~~~~~~~~~~~~~~~~~~~~~~~~~~0-0
Ride walk~~~~~~~~~~~~~~~~~~~~~~~~~~~~~0-0
Ride idle~~~~~~~~~~~~~~~~~~~~~~~~~~~~~0-0
Swim fast~~~~~~~~~~~~~~~~~~~~~~~~~~~~~0-0
Swim slow~~~~~~~~~~~~~~~~~~~~~~~~~~~~~0-0
Swim idle~~~~~~~~~~~~~~~~~~~~~~~~~~~~~0-0
Run~~~~~~~~~~~~~~~~~~~~~~~~~~~~~151-166
Walk~~~~~~~~~~~~~~~~~~~~~~~~~~~~~80-120


Anim ID: 41
Anim Set: Wyrm
Idle~~~~~~~~~~~~~~~~~~~~~~~~~~~~~166-206
Bite~~~~~~~~~~~~~~~~~~~~~~~~~~~~~1-13
Glide~~~~~~~~~~~~~~~~~~~~~~~~~~~~~87-110
Fly~~~~~~~~~~~~~~~~~~~~~~~~~~~~~64-86


Anim ID: 42
Anim Set: Beast
Die~~~~~~~~~~~~~~~~~~~~~~~~~~~~~382-400
Idle~~~~~~~~~~~~~~~~~~~~~~~~~~~~~332-380
Look around~~~~~~~~~~~~~~~~~~~~~~~~~~~~~290-330
Take damage~~~~~~~~~~~~~~~~~~~~~~~~~~~~~272-288
Stomp~~~~~~~~~~~~~~~~~~~~~~~~~~~~~232-270
Bite 2~~~~~~~~~~~~~~~~~~~~~~~~~~~~~212-230
Bite 1~~~~~~~~~~~~~~~~~~~~~~~~~~~~~197-210
Headbutt~~~~~~~~~~~~~~~~~~~~~~~~~~~~~182-195
Crouch down and look around~~~~~~~~~~~~~~~~~~~~~~~~~~~~~152-180
Rear up on hind legs~~~~~~~~~~~~~~~~~~~~~~~~~~~~~122-150
Jump with no z movement~~~~~~~~~~~~~~~~~~~~~~~~~~~~~102-120
Jump with z movement~~~~~~~~~~~~~~~~~~~~~~~~~~~~~82-100
Transition to walk animation~~~~~~~~~~~~~~~~~~~~~~~~~~~~~71-80
Emerge from underground~~~~~~~~~~~~~~~~~~~~~~~~~~~~~26-70
Walk~~~~~~~~~~~~~~~~~~~~~~~~~~~~~1-25


Anim ID: 43
Anim Set: Male2
Slash Down Loop~~~~~~~~~~~~~~~~~~~~~~~~~~~~~537-537
Slash Right~~~~~~~~~~~~~~~~~~~~~~~~~~~~~479-512
Slash Down~~~~~~~~~~~~~~~~~~~~~~~~~~~~~512-537
Bow~~~~~~~~~~~~~~~~~~~~~~~~~~~~~754-808
Wave~~~~~~~~~~~~~~~~~~~~~~~~~~~~~1071-1115
Stand up~~~~~~~~~~~~~~~~~~~~~~~~~~~~~0-0
Sit idle~~~~~~~~~~~~~~~~~~~~~~~~~~~~~111-111
Sit down~~~~~~~~~~~~~~~~~~~~~~~~~~~~~79-111
Look around~~~~~~~~~~~~~~~~~~~~~~~~~~~~~1583-1611
Yawn~~~~~~~~~~~~~~~~~~~~~~~~~~~~~209-296
Idle~~~~~~~~~~~~~~~~~~~~~~~~~~~~~194-208
Jump~~~~~~~~~~~~~~~~~~~~~~~~~~~~~32-55
Death 3~~~~~~~~~~~~~~~~~~~~~~~~~~~~~0-0
Death 2~~~~~~~~~~~~~~~~~~~~~~~~~~~~~933-959
Death 1~~~~~~~~~~~~~~~~~~~~~~~~~~~~~900-922
Hit 3~~~~~~~~~~~~~~~~~~~~~~~~~~~~~0-0
Hit 2~~~~~~~~~~~~~~~~~~~~~~~~~~~~~0-0
Hit 1~~~~~~~~~~~~~~~~~~~~~~~~~~~~~0-0
Shield parry~~~~~~~~~~~~~~~~~~~~~~~~~~~~~395-406
Staff parry~~~~~~~~~~~~~~~~~~~~~~~~~~~~~0-0
Two hand parry~~~~~~~~~~~~~~~~~~~~~~~~~~~~~0-0
Right hand parry~~~~~~~~~~~~~~~~~~~~~~~~~~~~~395-406
Default parry~~~~~~~~~~~~~~~~~~~~~~~~~~~~~0-0
Staff attack~~~~~~~~~~~~~~~~~~~~~~~~~~~~~538-650
Two hand attack~~~~~~~~~~~~~~~~~~~~~~~~~~~~~407-537
Right hand attack~~~~~~~~~~~~~~~~~~~~~~~~~~~~~297-395
Default attack~~~~~~~~~~~~~~~~~~~~~~~~~~~~~651-753
Ride run~~~~~~~~~~~~~~~~~~~~~~~~~~~~~1531-1539
Ride walk~~~~~~~~~~~~~~~~~~~~~~~~~~~~~1510-1530
Ride idle~~~~~~~~~~~~~~~~~~~~~~~~~~~~~1510-1510
Swim fast~~~~~~~~~~~~~~~~~~~~~~~~~~~~~56-78
Swim slow~~~~~~~~~~~~~~~~~~~~~~~~~~~~~56-78
Swim idle~~~~~~~~~~~~~~~~~~~~~~~~~~~~~56-78
Run~~~~~~~~~~~~~~~~~~~~~~~~~~~~~22-31
Walk~~~~~~~~~~~~~~~~~~~~~~~~~~~~~1-21


Anim ID: 44
Anim Set: Rat (copy)
Stand up~~~~~~~~~~~~~~~~~~~~~~~~~~~~~0-0
Sit idle~~~~~~~~~~~~~~~~~~~~~~~~~~~~~0-0
Sit down~~~~~~~~~~~~~~~~~~~~~~~~~~~~~0-0
Look around~~~~~~~~~~~~~~~~~~~~~~~~~~~~~0-0
Yawn~~~~~~~~~~~~~~~~~~~~~~~~~~~~~0-0
Jump~~~~~~~~~~~~~~~~~~~~~~~~~~~~~0-0
Death 3~~~~~~~~~~~~~~~~~~~~~~~~~~~~~58-70
Death 2~~~~~~~~~~~~~~~~~~~~~~~~~~~~~58-70
Death 1~~~~~~~~~~~~~~~~~~~~~~~~~~~~~58-70
Hit 3~~~~~~~~~~~~~~~~~~~~~~~~~~~~~0-0
Hit 2~~~~~~~~~~~~~~~~~~~~~~~~~~~~~0-0
Hit 1~~~~~~~~~~~~~~~~~~~~~~~~~~~~~0-0
Shield parry~~~~~~~~~~~~~~~~~~~~~~~~~~~~~0-0
Staff parry~~~~~~~~~~~~~~~~~~~~~~~~~~~~~0-0
Two hand parry~~~~~~~~~~~~~~~~~~~~~~~~~~~~~0-0
Right hand parry~~~~~~~~~~~~~~~~~~~~~~~~~~~~~0-0
Default parry~~~~~~~~~~~~~~~~~~~~~~~~~~~~~20-32
Staff attack~~~~~~~~~~~~~~~~~~~~~~~~~~~~~0-0
Two hand attack~~~~~~~~~~~~~~~~~~~~~~~~~~~~~0-0
Right hand attack~~~~~~~~~~~~~~~~~~~~~~~~~~~~~0-0
Default attack~~~~~~~~~~~~~~~~~~~~~~~~~~~~~1-18
Ride run~~~~~~~~~~~~~~~~~~~~~~~~~~~~~0-0
Ride walk~~~~~~~~~~~~~~~~~~~~~~~~~~~~~0-0
Ride idle~~~~~~~~~~~~~~~~~~~~~~~~~~~~~0-0
Swim fast~~~~~~~~~~~~~~~~~~~~~~~~~~~~~0-0
Swim slow~~~~~~~~~~~~~~~~~~~~~~~~~~~~~0-0
Swim idle~~~~~~~~~~~~~~~~~~~~~~~~~~~~~0-0
Run~~~~~~~~~~~~~~~~~~~~~~~~~~~~~51-55


Anim ID: 45
Anim Set: Dragon
Stand up~~~~~~~~~~~~~~~~~~~~~~~~~~~~~0-0
Sit idle~~~~~~~~~~~~~~~~~~~~~~~~~~~~~0-0
Sit down~~~~~~~~~~~~~~~~~~~~~~~~~~~~~0-0
Look around~~~~~~~~~~~~~~~~~~~~~~~~~~~~~0-40
Yawn~~~~~~~~~~~~~~~~~~~~~~~~~~~~~0-40
Idle~~~~~~~~~~~~~~~~~~~~~~~~~~~~~42-342
Jump~~~~~~~~~~~~~~~~~~~~~~~~~~~~~661-706
Death 3~~~~~~~~~~~~~~~~~~~~~~~~~~~~~0-0
Death 2~~~~~~~~~~~~~~~~~~~~~~~~~~~~~906-969
Death 1~~~~~~~~~~~~~~~~~~~~~~~~~~~~~551-611
Hit 3~~~~~~~~~~~~~~~~~~~~~~~~~~~~~884-904
Hit 2~~~~~~~~~~~~~~~~~~~~~~~~~~~~~534-549
Hit 1~~~~~~~~~~~~~~~~~~~~~~~~~~~~~517-532
Shield parry~~~~~~~~~~~~~~~~~~~~~~~~~~~~~0-0
Staff parry~~~~~~~~~~~~~~~~~~~~~~~~~~~~~0-0
Two hand parry~~~~~~~~~~~~~~~~~~~~~~~~~~~~~0-0
Right hand parry~~~~~~~~~~~~~~~~~~~~~~~~~~~~~0-0
Default parry~~~~~~~~~~~~~~~~~~~~~~~~~~~~~0-0
Staff attack~~~~~~~~~~~~~~~~~~~~~~~~~~~~~475-515
Two hand attack~~~~~~~~~~~~~~~~~~~~~~~~~~~~~413-473
Right hand attack~~~~~~~~~~~~~~~~~~~~~~~~~~~~~366-411
Default attack~~~~~~~~~~~~~~~~~~~~~~~~~~~~~344-364
Ride run~~~~~~~~~~~~~~~~~~~~~~~~~~~~~0-0
Ride walk~~~~~~~~~~~~~~~~~~~~~~~~~~~~~0-0
Ride idle~~~~~~~~~~~~~~~~~~~~~~~~~~~~~0-0
Swim fast~~~~~~~~~~~~~~~~~~~~~~~~~~~~~0-0
Swim slow~~~~~~~~~~~~~~~~~~~~~~~~~~~~~0-0
Swim idle~~~~~~~~~~~~~~~~~~~~~~~~~~~~~0-0
Run~~~~~~~~~~~~~~~~~~~~~~~~~~~~~645-659
Walk~~~~~~~~~~~~~~~~~~~~~~~~~~~~~613-643


Anim ID: 46
Anim Set: Goblin1
Stand up~~~~~~~~~~~~~~~~~~~~~~~~~~~~~0-0
Sit idle~~~~~~~~~~~~~~~~~~~~~~~~~~~~~0-0
Sit down~~~~~~~~~~~~~~~~~~~~~~~~~~~~~0-0
Look around~~~~~~~~~~~~~~~~~~~~~~~~~~~~~0-0
Yawn~~~~~~~~~~~~~~~~~~~~~~~~~~~~~0-0
Idle~~~~~~~~~~~~~~~~~~~~~~~~~~~~~0-0
Jump~~~~~~~~~~~~~~~~~~~~~~~~~~~~~0-0
Death 3~~~~~~~~~~~~~~~~~~~~~~~~~~~~~0-0
Death 2~~~~~~~~~~~~~~~~~~~~~~~~~~~~~411-450
Death 1~~~~~~~~~~~~~~~~~~~~~~~~~~~~~375-410
Hit 3~~~~~~~~~~~~~~~~~~~~~~~~~~~~~0-0
Hit 2~~~~~~~~~~~~~~~~~~~~~~~~~~~~~358-373
Hit 1~~~~~~~~~~~~~~~~~~~~~~~~~~~~~341-356
Shield parry~~~~~~~~~~~~~~~~~~~~~~~~~~~~~0-0
Staff parry~~~~~~~~~~~~~~~~~~~~~~~~~~~~~0-0
Two hand parry~~~~~~~~~~~~~~~~~~~~~~~~~~~~~0-0
Right hand parry~~~~~~~~~~~~~~~~~~~~~~~~~~~~~0-0
Default parry~~~~~~~~~~~~~~~~~~~~~~~~~~~~~0-0
Staff attack~~~~~~~~~~~~~~~~~~~~~~~~~~~~~0-0
Two hand attack~~~~~~~~~~~~~~~~~~~~~~~~~~~~~304-339
Right hand attack~~~~~~~~~~~~~~~~~~~~~~~~~~~~~282-302
Default attack~~~~~~~~~~~~~~~~~~~~~~~~~~~~~260-280
Ride run~~~~~~~~~~~~~~~~~~~~~~~~~~~~~0-0
Ride walk~~~~~~~~~~~~~~~~~~~~~~~~~~~~~0-0
Ride idle~~~~~~~~~~~~~~~~~~~~~~~~~~~~~0-0
Swim fast~~~~~~~~~~~~~~~~~~~~~~~~~~~~~0-0
Swim slow~~~~~~~~~~~~~~~~~~~~~~~~~~~~~0-0
Swim idle~~~~~~~~~~~~~~~~~~~~~~~~~~~~~0-0
Run~~~~~~~~~~~~~~~~~~~~~~~~~~~~~30-47
Walk~~~~~~~~~~~~~~~~~~~~~~~~~~~~~0-28


Anim ID: 47
Anim Set: Hydra
Stand up~~~~~~~~~~~~~~~~~~~~~~~~~~~~~0-0
Sit idle~~~~~~~~~~~~~~~~~~~~~~~~~~~~~0-0
Sit down~~~~~~~~~~~~~~~~~~~~~~~~~~~~~0-0
Look around~~~~~~~~~~~~~~~~~~~~~~~~~~~~~26-71
Yawn~~~~~~~~~~~~~~~~~~~~~~~~~~~~~0-0
Idle~~~~~~~~~~~~~~~~~~~~~~~~~~~~~540-545
Jump~~~~~~~~~~~~~~~~~~~~~~~~~~~~~0-0
Death 3~~~~~~~~~~~~~~~~~~~~~~~~~~~~~0-0
Death 2~~~~~~~~~~~~~~~~~~~~~~~~~~~~~0-0
Death 1~~~~~~~~~~~~~~~~~~~~~~~~~~~~~578-640
Hit 3~~~~~~~~~~~~~~~~~~~~~~~~~~~~~0-0
Hit 2~~~~~~~~~~~~~~~~~~~~~~~~~~~~~562-577
Hit 1~~~~~~~~~~~~~~~~~~~~~~~~~~~~~546-561
Shield parry~~~~~~~~~~~~~~~~~~~~~~~~~~~~~0-0
Staff parry~~~~~~~~~~~~~~~~~~~~~~~~~~~~~0-0
Two hand parry~~~~~~~~~~~~~~~~~~~~~~~~~~~~~0-0
Right hand parry~~~~~~~~~~~~~~~~~~~~~~~~~~~~~0-0
Default parry~~~~~~~~~~~~~~~~~~~~~~~~~~~~~0-0
Staff attack~~~~~~~~~~~~~~~~~~~~~~~~~~~~~0-0
Two hand attack~~~~~~~~~~~~~~~~~~~~~~~~~~~~~165-377
Right hand attack~~~~~~~~~~~~~~~~~~~~~~~~~~~~~0-0
Default attack~~~~~~~~~~~~~~~~~~~~~~~~~~~~~72-164
Ride run~~~~~~~~~~~~~~~~~~~~~~~~~~~~~0-0
Ride walk~~~~~~~~~~~~~~~~~~~~~~~~~~~~~0-0
Ride idle~~~~~~~~~~~~~~~~~~~~~~~~~~~~~0-0
Swim fast~~~~~~~~~~~~~~~~~~~~~~~~~~~~~0-0
Swim slow~~~~~~~~~~~~~~~~~~~~~~~~~~~~~0-0
Swim idle~~~~~~~~~~~~~~~~~~~~~~~~~~~~~0-0
Run~~~~~~~~~~~~~~~~~~~~~~~~~~~~~0-0
Walk~~~~~~~~~~~~~~~~~~~~~~~~~~~~~0-25


Anim ID: 48
Anim Set: Short Goblin
Stand up~~~~~~~~~~~~~~~~~~~~~~~~~~~~~0-0
Sit idle~~~~~~~~~~~~~~~~~~~~~~~~~~~~~0-0
Sit down~~~~~~~~~~~~~~~~~~~~~~~~~~~~~0-0
Look around~~~~~~~~~~~~~~~~~~~~~~~~~~~~~64-94
Yawn~~~~~~~~~~~~~~~~~~~~~~~~~~~~~0-0
Idle~~~~~~~~~~~~~~~~~~~~~~~~~~~~~96-246
Jump~~~~~~~~~~~~~~~~~~~~~~~~~~~~~0-0
Death 3~~~~~~~~~~~~~~~~~~~~~~~~~~~~~0-0
Death 2~~~~~~~~~~~~~~~~~~~~~~~~~~~~~413-475
Death 1~~~~~~~~~~~~~~~~~~~~~~~~~~~~~378-412
Hit 3~~~~~~~~~~~~~~~~~~~~~~~~~~~~~0-0
Hit 2~~~~~~~~~~~~~~~~~~~~~~~~~~~~~361-376
Hit 1~~~~~~~~~~~~~~~~~~~~~~~~~~~~~344-359
Shield parry~~~~~~~~~~~~~~~~~~~~~~~~~~~~~0-0
Staff parry~~~~~~~~~~~~~~~~~~~~~~~~~~~~~0-0
Two hand parry~~~~~~~~~~~~~~~~~~~~~~~~~~~~~0-0
Right hand parry~~~~~~~~~~~~~~~~~~~~~~~~~~~~~0-0
Default parry~~~~~~~~~~~~~~~~~~~~~~~~~~~~~0-0
Staff attack~~~~~~~~~~~~~~~~~~~~~~~~~~~~~0-0
Two hand attack~~~~~~~~~~~~~~~~~~~~~~~~~~~~~312-342
Right hand attack~~~~~~~~~~~~~~~~~~~~~~~~~~~~~280-310
Default attack~~~~~~~~~~~~~~~~~~~~~~~~~~~~~248-278
Ride run~~~~~~~~~~~~~~~~~~~~~~~~~~~~~0-0
Ride walk~~~~~~~~~~~~~~~~~~~~~~~~~~~~~0-0
Ride idle~~~~~~~~~~~~~~~~~~~~~~~~~~~~~0-0
Swim fast~~~~~~~~~~~~~~~~~~~~~~~~~~~~~0-0
Swim slow~~~~~~~~~~~~~~~~~~~~~~~~~~~~~0-0
Swim idle~~~~~~~~~~~~~~~~~~~~~~~~~~~~~0-0
Run~~~~~~~~~~~~~~~~~~~~~~~~~~~~~32-52
Walk~~~~~~~~~~~~~~~~~~~~~~~~~~~~~0-30


Anim ID: 49
Anim Set: Werewolf
Stand up~~~~~~~~~~~~~~~~~~~~~~~~~~~~~0-0
Sit idle~~~~~~~~~~~~~~~~~~~~~~~~~~~~~0-0
Sit down~~~~~~~~~~~~~~~~~~~~~~~~~~~~~0-0
Look around~~~~~~~~~~~~~~~~~~~~~~~~~~~~~0-0
Yawn~~~~~~~~~~~~~~~~~~~~~~~~~~~~~0-0
Idle~~~~~~~~~~~~~~~~~~~~~~~~~~~~~27-52
Jump~~~~~~~~~~~~~~~~~~~~~~~~~~~~~0-0
Death 3~~~~~~~~~~~~~~~~~~~~~~~~~~~~~0-0
Death 2~~~~~~~~~~~~~~~~~~~~~~~~~~~~~101-111
Death 1~~~~~~~~~~~~~~~~~~~~~~~~~~~~~89-100
Hit 3~~~~~~~~~~~~~~~~~~~~~~~~~~~~~0-0
Hit 2~~~~~~~~~~~~~~~~~~~~~~~~~~~~~0-0
Hit 1~~~~~~~~~~~~~~~~~~~~~~~~~~~~~112-119
Shield parry~~~~~~~~~~~~~~~~~~~~~~~~~~~~~0-0
Staff parry~~~~~~~~~~~~~~~~~~~~~~~~~~~~~0-0
Two hand parry~~~~~~~~~~~~~~~~~~~~~~~~~~~~~0-0
Right hand parry~~~~~~~~~~~~~~~~~~~~~~~~~~~~~0-0
Default parry~~~~~~~~~~~~~~~~~~~~~~~~~~~~~0-0
Staff attack~~~~~~~~~~~~~~~~~~~~~~~~~~~~~0-0
Two hand attack~~~~~~~~~~~~~~~~~~~~~~~~~~~~~120-150
Right hand attack~~~~~~~~~~~~~~~~~~~~~~~~~~~~~67-77
Default attack~~~~~~~~~~~~~~~~~~~~~~~~~~~~~78-88
Ride run~~~~~~~~~~~~~~~~~~~~~~~~~~~~~0-0
Ride walk~~~~~~~~~~~~~~~~~~~~~~~~~~~~~0-0
Ride idle~~~~~~~~~~~~~~~~~~~~~~~~~~~~~0-0
Swim fast~~~~~~~~~~~~~~~~~~~~~~~~~~~~~0-0
Swim slow~~~~~~~~~~~~~~~~~~~~~~~~~~~~~0-0
Swim idle~~~~~~~~~~~~~~~~~~~~~~~~~~~~~0-0
Run~~~~~~~~~~~~~~~~~~~~~~~~~~~~~17-26
Walk~~~~~~~~~~~~~~~~~~~~~~~~~~~~~1-16


Anim ID: 50
Anim Set: Female1
Stand up~~~~~~~~~~~~~~~~~~~~~~~~~~~~~0-0
Sit idle~~~~~~~~~~~~~~~~~~~~~~~~~~~~~0-0
Sit down~~~~~~~~~~~~~~~~~~~~~~~~~~~~~0-0
Look around~~~~~~~~~~~~~~~~~~~~~~~~~~~~~0-0
Yawn~~~~~~~~~~~~~~~~~~~~~~~~~~~~~0-0
Idle~~~~~~~~~~~~~~~~~~~~~~~~~~~~~41-75
Jump~~~~~~~~~~~~~~~~~~~~~~~~~~~~~0-0
Death 3~~~~~~~~~~~~~~~~~~~~~~~~~~~~~0-0
Death 2~~~~~~~~~~~~~~~~~~~~~~~~~~~~~0-0
Death 1~~~~~~~~~~~~~~~~~~~~~~~~~~~~~0-0
Hit 3~~~~~~~~~~~~~~~~~~~~~~~~~~~~~0-0
Hit 2~~~~~~~~~~~~~~~~~~~~~~~~~~~~~0-0
Hit 1~~~~~~~~~~~~~~~~~~~~~~~~~~~~~0-0
Shield parry~~~~~~~~~~~~~~~~~~~~~~~~~~~~~0-0
Staff parry~~~~~~~~~~~~~~~~~~~~~~~~~~~~~0-0
Two hand parry~~~~~~~~~~~~~~~~~~~~~~~~~~~~~0-0
Right hand parry~~~~~~~~~~~~~~~~~~~~~~~~~~~~~0-0
Default parry~~~~~~~~~~~~~~~~~~~~~~~~~~~~~0-0
Staff attack~~~~~~~~~~~~~~~~~~~~~~~~~~~~~0-0
Two hand attack~~~~~~~~~~~~~~~~~~~~~~~~~~~~~0-0
Right hand attack~~~~~~~~~~~~~~~~~~~~~~~~~~~~~0-0
Default attack~~~~~~~~~~~~~~~~~~~~~~~~~~~~~0-0
Ride run~~~~~~~~~~~~~~~~~~~~~~~~~~~~~0-0
Ride walk~~~~~~~~~~~~~~~~~~~~~~~~~~~~~0-0
Ride idle~~~~~~~~~~~~~~~~~~~~~~~~~~~~~0-0
Swim fast~~~~~~~~~~~~~~~~~~~~~~~~~~~~~0-0
Swim slow~~~~~~~~~~~~~~~~~~~~~~~~~~~~~0-0
Swim idle~~~~~~~~~~~~~~~~~~~~~~~~~~~~~0-0
Run~~~~~~~~~~~~~~~~~~~~~~~~~~~~~0-0
Walk~~~~~~~~~~~~~~~~~~~~~~~~~~~~~1-40


Anim ID: 51
Anim Set: Scorpion
death~~~~~~~~~~~~~~~~~~~~~~~~~~~~~151-220
hit~~~~~~~~~~~~~~~~~~~~~~~~~~~~~124-139
attack2~~~~~~~~~~~~~~~~~~~~~~~~~~~~~93-123
attack1~~~~~~~~~~~~~~~~~~~~~~~~~~~~~62-92
run~~~~~~~~~~~~~~~~~~~~~~~~~~~~~31-61
Stand~~~~~~~~~~~~~~~~~~~~~~~~~~~~~0-30


Anim ID: 52
Anim Set: Notice Board
Idle~~~~~~~~~~~~~~~~~~~~~~~~~~~~~1-20


Anim ID: 53
Anim Set: Basilisk
Stand up~~~~~~~~~~~~~~~~~~~~~~~~~~~~~0-0
Sit idle~~~~~~~~~~~~~~~~~~~~~~~~~~~~~0-0
Sit down~~~~~~~~~~~~~~~~~~~~~~~~~~~~~0-0
Look around~~~~~~~~~~~~~~~~~~~~~~~~~~~~~0-0
Yawn~~~~~~~~~~~~~~~~~~~~~~~~~~~~~286-376
Idle~~~~~~~~~~~~~~~~~~~~~~~~~~~~~134-284
Jump~~~~~~~~~~~~~~~~~~~~~~~~~~~~~0-0
Death 3~~~~~~~~~~~~~~~~~~~~~~~~~~~~~0-0
Death 2~~~~~~~~~~~~~~~~~~~~~~~~~~~~~687-717
Death 1~~~~~~~~~~~~~~~~~~~~~~~~~~~~~647-686
Hit 3~~~~~~~~~~~~~~~~~~~~~~~~~~~~~0-0
Hit 2~~~~~~~~~~~~~~~~~~~~~~~~~~~~~615-645
Hit 1~~~~~~~~~~~~~~~~~~~~~~~~~~~~~538-613
Shield parry~~~~~~~~~~~~~~~~~~~~~~~~~~~~~0-0
Staff parry~~~~~~~~~~~~~~~~~~~~~~~~~~~~~0-0
Two hand parry~~~~~~~~~~~~~~~~~~~~~~~~~~~~~0-0
Right hand parry~~~~~~~~~~~~~~~~~~~~~~~~~~~~~0-0
Default parry~~~~~~~~~~~~~~~~~~~~~~~~~~~~~0-0
Staff attack~~~~~~~~~~~~~~~~~~~~~~~~~~~~~0-0
Two hand attack~~~~~~~~~~~~~~~~~~~~~~~~~~~~~474-519
Right hand attack~~~~~~~~~~~~~~~~~~~~~~~~~~~~~410-440
Default attack~~~~~~~~~~~~~~~~~~~~~~~~~~~~~378-408
Ride run~~~~~~~~~~~~~~~~~~~~~~~~~~~~~0-0
Ride walk~~~~~~~~~~~~~~~~~~~~~~~~~~~~~0-0
Ride idle~~~~~~~~~~~~~~~~~~~~~~~~~~~~~0-0
Swim fast~~~~~~~~~~~~~~~~~~~~~~~~~~~~~0-0
Swim slow~~~~~~~~~~~~~~~~~~~~~~~~~~~~~0-0
Swim idle~~~~~~~~~~~~~~~~~~~~~~~~~~~~~0-0
Run~~~~~~~~~~~~~~~~~~~~~~~~~~~~~0-0
Walk~~~~~~~~~~~~~~~~~~~~~~~~~~~~~1-59


Anim ID: 54
Anim Set: Souleater
Stand up~~~~~~~~~~~~~~~~~~~~~~~~~~~~~0-0
Sit idle~~~~~~~~~~~~~~~~~~~~~~~~~~~~~0-0
Sit down~~~~~~~~~~~~~~~~~~~~~~~~~~~~~0-0
Look around~~~~~~~~~~~~~~~~~~~~~~~~~~~~~0-0
Yawn~~~~~~~~~~~~~~~~~~~~~~~~~~~~~171-263
Idle~~~~~~~~~~~~~~~~~~~~~~~~~~~~~27-170
Jump~~~~~~~~~~~~~~~~~~~~~~~~~~~~~0-0
Death 3~~~~~~~~~~~~~~~~~~~~~~~~~~~~~0-0
Death 2~~~~~~~~~~~~~~~~~~~~~~~~~~~~~556-612
Death 1~~~~~~~~~~~~~~~~~~~~~~~~~~~~~481-555
Hit 3~~~~~~~~~~~~~~~~~~~~~~~~~~~~~0-0
Hit 2~~~~~~~~~~~~~~~~~~~~~~~~~~~~~458-480
Hit 1~~~~~~~~~~~~~~~~~~~~~~~~~~~~~437-457
Shield parry~~~~~~~~~~~~~~~~~~~~~~~~~~~~~0-0
Staff parry~~~~~~~~~~~~~~~~~~~~~~~~~~~~~0-0
Two hand parry~~~~~~~~~~~~~~~~~~~~~~~~~~~~~0-0
Right hand parry~~~~~~~~~~~~~~~~~~~~~~~~~~~~~0-0
Default parry~~~~~~~~~~~~~~~~~~~~~~~~~~~~~0-0
Staff attack~~~~~~~~~~~~~~~~~~~~~~~~~~~~~0-0
Two hand attack~~~~~~~~~~~~~~~~~~~~~~~~~~~~~336-375
Right hand attack~~~~~~~~~~~~~~~~~~~~~~~~~~~~~301-335
Default attack~~~~~~~~~~~~~~~~~~~~~~~~~~~~~264-300
Ride run~~~~~~~~~~~~~~~~~~~~~~~~~~~~~0-0
Ride walk~~~~~~~~~~~~~~~~~~~~~~~~~~~~~0-0
Ride idle~~~~~~~~~~~~~~~~~~~~~~~~~~~~~0-0
Swim fast~~~~~~~~~~~~~~~~~~~~~~~~~~~~~0-0
Swim slow~~~~~~~~~~~~~~~~~~~~~~~~~~~~~0-0
Swim idle~~~~~~~~~~~~~~~~~~~~~~~~~~~~~0-0
Run~~~~~~~~~~~~~~~~~~~~~~~~~~~~~0-0
Walk~~~~~~~~~~~~~~~~~~~~~~~~~~~~~1-26


Anim ID: 55
Anim Set: Scorpion
Stand up~~~~~~~~~~~~~~~~~~~~~~~~~~~~~0-0
Sit idle~~~~~~~~~~~~~~~~~~~~~~~~~~~~~0-0
Sit down~~~~~~~~~~~~~~~~~~~~~~~~~~~~~0-0
Look around~~~~~~~~~~~~~~~~~~~~~~~~~~~~~0-0
Yawn~~~~~~~~~~~~~~~~~~~~~~~~~~~~~0-0
Idle~~~~~~~~~~~~~~~~~~~~~~~~~~~~~0-30
Jump~~~~~~~~~~~~~~~~~~~~~~~~~~~~~0-0
Death 3~~~~~~~~~~~~~~~~~~~~~~~~~~~~~0-0
Death 2~~~~~~~~~~~~~~~~~~~~~~~~~~~~~0-0
Death 1~~~~~~~~~~~~~~~~~~~~~~~~~~~~~151-220
Hit 3~~~~~~~~~~~~~~~~~~~~~~~~~~~~~0-0
Hit 2~~~~~~~~~~~~~~~~~~~~~~~~~~~~~0-0
Hit 1~~~~~~~~~~~~~~~~~~~~~~~~~~~~~124-139
Shield parry~~~~~~~~~~~~~~~~~~~~~~~~~~~~~0-0
Staff parry~~~~~~~~~~~~~~~~~~~~~~~~~~~~~0-0
Two hand parry~~~~~~~~~~~~~~~~~~~~~~~~~~~~~0-0
Right hand parry~~~~~~~~~~~~~~~~~~~~~~~~~~~~~0-0
Default parry~~~~~~~~~~~~~~~~~~~~~~~~~~~~~0-0
Staff attack~~~~~~~~~~~~~~~~~~~~~~~~~~~~~0-0
Two hand attack~~~~~~~~~~~~~~~~~~~~~~~~~~~~~0-0
Right hand attack~~~~~~~~~~~~~~~~~~~~~~~~~~~~~93-123
Default attack~~~~~~~~~~~~~~~~~~~~~~~~~~~~~62-92
Ride run~~~~~~~~~~~~~~~~~~~~~~~~~~~~~0-0
Ride walk~~~~~~~~~~~~~~~~~~~~~~~~~~~~~0-0
Ride idle~~~~~~~~~~~~~~~~~~~~~~~~~~~~~0-0
Swim fast~~~~~~~~~~~~~~~~~~~~~~~~~~~~~0-0
Swim slow~~~~~~~~~~~~~~~~~~~~~~~~~~~~~0-0
Swim idle~~~~~~~~~~~~~~~~~~~~~~~~~~~~~0-0
Run~~~~~~~~~~~~~~~~~~~~~~~~~~~~~31-61
Walk~~~~~~~~~~~~~~~~~~~~~~~~~~~~~31-61


Anim ID: 56
Anim Set: FKnight
Stand up~~~~~~~~~~~~~~~~~~~~~~~~~~~~~0-0
Sit idle~~~~~~~~~~~~~~~~~~~~~~~~~~~~~0-0
Sit down~~~~~~~~~~~~~~~~~~~~~~~~~~~~~0-0
Look around~~~~~~~~~~~~~~~~~~~~~~~~~~~~~0-0
Yawn~~~~~~~~~~~~~~~~~~~~~~~~~~~~~0-0
Idle~~~~~~~~~~~~~~~~~~~~~~~~~~~~~0-0
Jump~~~~~~~~~~~~~~~~~~~~~~~~~~~~~0-0
Death 3~~~~~~~~~~~~~~~~~~~~~~~~~~~~~0-0
Death 2~~~~~~~~~~~~~~~~~~~~~~~~~~~~~0-0
Death 1~~~~~~~~~~~~~~~~~~~~~~~~~~~~~0-0
Hit 3~~~~~~~~~~~~~~~~~~~~~~~~~~~~~0-0
Hit 2~~~~~~~~~~~~~~~~~~~~~~~~~~~~~0-0
Hit 1~~~~~~~~~~~~~~~~~~~~~~~~~~~~~0-0
Shield parry~~~~~~~~~~~~~~~~~~~~~~~~~~~~~0-0
Staff parry~~~~~~~~~~~~~~~~~~~~~~~~~~~~~0-0
Two hand parry~~~~~~~~~~~~~~~~~~~~~~~~~~~~~0-0
Right hand parry~~~~~~~~~~~~~~~~~~~~~~~~~~~~~0-0
Default parry~~~~~~~~~~~~~~~~~~~~~~~~~~~~~0-0
Staff attack~~~~~~~~~~~~~~~~~~~~~~~~~~~~~0-0
Two hand attack~~~~~~~~~~~~~~~~~~~~~~~~~~~~~0-0
Right hand attack~~~~~~~~~~~~~~~~~~~~~~~~~~~~~0-0
Default attack~~~~~~~~~~~~~~~~~~~~~~~~~~~~~0-0
Ride run~~~~~~~~~~~~~~~~~~~~~~~~~~~~~0-0
Ride walk~~~~~~~~~~~~~~~~~~~~~~~~~~~~~0-0
Ride idle~~~~~~~~~~~~~~~~~~~~~~~~~~~~~0-0
Swim fast~~~~~~~~~~~~~~~~~~~~~~~~~~~~~0-0
Swim slow~~~~~~~~~~~~~~~~~~~~~~~~~~~~~0-0
Swim idle~~~~~~~~~~~~~~~~~~~~~~~~~~~~~0-0
Run~~~~~~~~~~~~~~~~~~~~~~~~~~~~~0-0
Walk~~~~~~~~~~~~~~~~~~~~~~~~~~~~~0-0


Anim ID: 57
Anim Set: Manticore
Stand up~~~~~~~~~~~~~~~~~~~~~~~~~~~~~0-0
Sit idle~~~~~~~~~~~~~~~~~~~~~~~~~~~~~0-0
Sit down~~~~~~~~~~~~~~~~~~~~~~~~~~~~~0-0
Look around~~~~~~~~~~~~~~~~~~~~~~~~~~~~~0-0
Yawn~~~~~~~~~~~~~~~~~~~~~~~~~~~~~237-330
Idle~~~~~~~~~~~~~~~~~~~~~~~~~~~~~113-236
Jump~~~~~~~~~~~~~~~~~~~~~~~~~~~~~0-0
Death 3~~~~~~~~~~~~~~~~~~~~~~~~~~~~~0-0
Death 2~~~~~~~~~~~~~~~~~~~~~~~~~~~~~0-0
Death 1~~~~~~~~~~~~~~~~~~~~~~~~~~~~~563-602
Hit 3~~~~~~~~~~~~~~~~~~~~~~~~~~~~~0-0
Hit 2~~~~~~~~~~~~~~~~~~~~~~~~~~~~~541-562
Hit 1~~~~~~~~~~~~~~~~~~~~~~~~~~~~~516-540
Shield parry~~~~~~~~~~~~~~~~~~~~~~~~~~~~~0-0
Staff parry~~~~~~~~~~~~~~~~~~~~~~~~~~~~~0-0
Two hand parry~~~~~~~~~~~~~~~~~~~~~~~~~~~~~0-0
Right hand parry~~~~~~~~~~~~~~~~~~~~~~~~~~~~~0-0
Default parry~~~~~~~~~~~~~~~~~~~~~~~~~~~~~0-0
Staff attack~~~~~~~~~~~~~~~~~~~~~~~~~~~~~0-0
Two hand attack~~~~~~~~~~~~~~~~~~~~~~~~~~~~~422-465
Right hand attack~~~~~~~~~~~~~~~~~~~~~~~~~~~~~378-421
Default attack~~~~~~~~~~~~~~~~~~~~~~~~~~~~~331-377
Ride run~~~~~~~~~~~~~~~~~~~~~~~~~~~~~0-0
Ride walk~~~~~~~~~~~~~~~~~~~~~~~~~~~~~0-0
Ride idle~~~~~~~~~~~~~~~~~~~~~~~~~~~~~0-0
Swim fast~~~~~~~~~~~~~~~~~~~~~~~~~~~~~0-0
Swim slow~~~~~~~~~~~~~~~~~~~~~~~~~~~~~0-0
Swim idle~~~~~~~~~~~~~~~~~~~~~~~~~~~~~0-0
Run~~~~~~~~~~~~~~~~~~~~~~~~~~~~~41-65
Walk~~~~~~~~~~~~~~~~~~~~~~~~~~~~~2-40


Anim ID: 58
Anim Set: Demon
Stand up~~~~~~~~~~~~~~~~~~~~~~~~~~~~~0-0
Sit idle~~~~~~~~~~~~~~~~~~~~~~~~~~~~~0-0
Sit down~~~~~~~~~~~~~~~~~~~~~~~~~~~~~0-0
Look around~~~~~~~~~~~~~~~~~~~~~~~~~~~~~0-0
Yawn~~~~~~~~~~~~~~~~~~~~~~~~~~~~~0-0
Idle~~~~~~~~~~~~~~~~~~~~~~~~~~~~~1-30
Jump~~~~~~~~~~~~~~~~~~~~~~~~~~~~~0-0
Death 3~~~~~~~~~~~~~~~~~~~~~~~~~~~~~0-0
Death 2~~~~~~~~~~~~~~~~~~~~~~~~~~~~~0-0
Death 1~~~~~~~~~~~~~~~~~~~~~~~~~~~~~385-435
Hit 3~~~~~~~~~~~~~~~~~~~~~~~~~~~~~0-0
Hit 2~~~~~~~~~~~~~~~~~~~~~~~~~~~~~0-0
Hit 1~~~~~~~~~~~~~~~~~~~~~~~~~~~~~371-384
Shield parry~~~~~~~~~~~~~~~~~~~~~~~~~~~~~0-0
Staff parry~~~~~~~~~~~~~~~~~~~~~~~~~~~~~0-0
Two hand parry~~~~~~~~~~~~~~~~~~~~~~~~~~~~~0-0
Right hand parry~~~~~~~~~~~~~~~~~~~~~~~~~~~~~0-0
Default parry~~~~~~~~~~~~~~~~~~~~~~~~~~~~~0-0
Staff attack~~~~~~~~~~~~~~~~~~~~~~~~~~~~~0-0
Two hand attack~~~~~~~~~~~~~~~~~~~~~~~~~~~~~152-223
Right hand attack~~~~~~~~~~~~~~~~~~~~~~~~~~~~~121-151
Default attack~~~~~~~~~~~~~~~~~~~~~~~~~~~~~86-120
Ride run~~~~~~~~~~~~~~~~~~~~~~~~~~~~~0-0
Ride walk~~~~~~~~~~~~~~~~~~~~~~~~~~~~~0-0
Ride idle~~~~~~~~~~~~~~~~~~~~~~~~~~~~~0-0
Swim fast~~~~~~~~~~~~~~~~~~~~~~~~~~~~~0-0
Swim slow~~~~~~~~~~~~~~~~~~~~~~~~~~~~~0-0
Swim idle~~~~~~~~~~~~~~~~~~~~~~~~~~~~~0-0
Run~~~~~~~~~~~~~~~~~~~~~~~~~~~~~61-85
Walk~~~~~~~~~~~~~~~~~~~~~~~~~~~~~31-60


Anim ID: 59
Anim Set: Skeleton
Stand up~~~~~~~~~~~~~~~~~~~~~~~~~~~~~0-0
Sit idle~~~~~~~~~~~~~~~~~~~~~~~~~~~~~0-0
Sit down~~~~~~~~~~~~~~~~~~~~~~~~~~~~~0-0
Look around~~~~~~~~~~~~~~~~~~~~~~~~~~~~~0-0
Yawn~~~~~~~~~~~~~~~~~~~~~~~~~~~~~0-0
Idle~~~~~~~~~~~~~~~~~~~~~~~~~~~~~3-272
Jump~~~~~~~~~~~~~~~~~~~~~~~~~~~~~0-0
Death 3~~~~~~~~~~~~~~~~~~~~~~~~~~~~~0-0
Death 2~~~~~~~~~~~~~~~~~~~~~~~~~~~~~0-0
Death 1~~~~~~~~~~~~~~~~~~~~~~~~~~~~~723-771
Hit 3~~~~~~~~~~~~~~~~~~~~~~~~~~~~~0-0
Hit 2~~~~~~~~~~~~~~~~~~~~~~~~~~~~~1268-1359
Hit 1~~~~~~~~~~~~~~~~~~~~~~~~~~~~~615-663
Shield parry~~~~~~~~~~~~~~~~~~~~~~~~~~~~~0-0
Staff parry~~~~~~~~~~~~~~~~~~~~~~~~~~~~~0-0
Two hand parry~~~~~~~~~~~~~~~~~~~~~~~~~~~~~0-0
Right hand parry~~~~~~~~~~~~~~~~~~~~~~~~~~~~~0-0
Default parry~~~~~~~~~~~~~~~~~~~~~~~~~~~~~0-0
Staff attack~~~~~~~~~~~~~~~~~~~~~~~~~~~~~0-0
Two hand attack~~~~~~~~~~~~~~~~~~~~~~~~~~~~~397-436
Right hand attack~~~~~~~~~~~~~~~~~~~~~~~~~~~~~307-396
Default attack~~~~~~~~~~~~~~~~~~~~~~~~~~~~~273-306
Ride run~~~~~~~~~~~~~~~~~~~~~~~~~~~~~0-0
Ride walk~~~~~~~~~~~~~~~~~~~~~~~~~~~~~0-0
Ride idle~~~~~~~~~~~~~~~~~~~~~~~~~~~~~0-0
Swim fast~~~~~~~~~~~~~~~~~~~~~~~~~~~~~0-0
Swim slow~~~~~~~~~~~~~~~~~~~~~~~~~~~~~0-0
Swim idle~~~~~~~~~~~~~~~~~~~~~~~~~~~~~0-0
Run~~~~~~~~~~~~~~~~~~~~~~~~~~~~~598-614
Walk~~~~~~~~~~~~~~~~~~~~~~~~~~~~~537-568


Anim ID: 60
Anim Set: Bucket
Stand up~~~~~~~~~~~~~~~~~~~~~~~~~~~~~0-0
Sit idle~~~~~~~~~~~~~~~~~~~~~~~~~~~~~0-0
Sit down~~~~~~~~~~~~~~~~~~~~~~~~~~~~~0-0
Look around~~~~~~~~~~~~~~~~~~~~~~~~~~~~~0-0
Yawn~~~~~~~~~~~~~~~~~~~~~~~~~~~~~0-0
Idle~~~~~~~~~~~~~~~~~~~~~~~~~~~~~1-1
Jump~~~~~~~~~~~~~~~~~~~~~~~~~~~~~0-0
Death 3~~~~~~~~~~~~~~~~~~~~~~~~~~~~~0-0
Death 2~~~~~~~~~~~~~~~~~~~~~~~~~~~~~0-0
Death 1~~~~~~~~~~~~~~~~~~~~~~~~~~~~~0-0
Hit 3~~~~~~~~~~~~~~~~~~~~~~~~~~~~~0-0
Hit 2~~~~~~~~~~~~~~~~~~~~~~~~~~~~~0-0
Hit 1~~~~~~~~~~~~~~~~~~~~~~~~~~~~~0-0
Shield parry~~~~~~~~~~~~~~~~~~~~~~~~~~~~~0-0
Staff parry~~~~~~~~~~~~~~~~~~~~~~~~~~~~~0-0
Two hand parry~~~~~~~~~~~~~~~~~~~~~~~~~~~~~0-0
Right hand parry~~~~~~~~~~~~~~~~~~~~~~~~~~~~~0-0
Default parry~~~~~~~~~~~~~~~~~~~~~~~~~~~~~0-0
Staff attack~~~~~~~~~~~~~~~~~~~~~~~~~~~~~0-0
Two hand attack~~~~~~~~~~~~~~~~~~~~~~~~~~~~~0-0
Right hand attack~~~~~~~~~~~~~~~~~~~~~~~~~~~~~0-0
Default attack~~~~~~~~~~~~~~~~~~~~~~~~~~~~~0-0
Ride run~~~~~~~~~~~~~~~~~~~~~~~~~~~~~0-0
Ride walk~~~~~~~~~~~~~~~~~~~~~~~~~~~~~0-0
Ride idle~~~~~~~~~~~~~~~~~~~~~~~~~~~~~0-0
Swim fast~~~~~~~~~~~~~~~~~~~~~~~~~~~~~0-0
Swim slow~~~~~~~~~~~~~~~~~~~~~~~~~~~~~0-0
Swim idle~~~~~~~~~~~~~~~~~~~~~~~~~~~~~0-0
Run~~~~~~~~~~~~~~~~~~~~~~~~~~~~~0-0
Walk~~~~~~~~~~~~~~~~~~~~~~~~~~~~~0-0


Anim ID: 61
Anim Set: Clicker
Stand up~~~~~~~~~~~~~~~~~~~~~~~~~~~~~0-0
Sit idle~~~~~~~~~~~~~~~~~~~~~~~~~~~~~0-0
Sit down~~~~~~~~~~~~~~~~~~~~~~~~~~~~~0-0
Look around~~~~~~~~~~~~~~~~~~~~~~~~~~~~~0-0
Yawn~~~~~~~~~~~~~~~~~~~~~~~~~~~~~0-0
Idle~~~~~~~~~~~~~~~~~~~~~~~~~~~~~0-0
Jump~~~~~~~~~~~~~~~~~~~~~~~~~~~~~0-0
Death 3~~~~~~~~~~~~~~~~~~~~~~~~~~~~~0-0
Death 2~~~~~~~~~~~~~~~~~~~~~~~~~~~~~0-0
Death 1~~~~~~~~~~~~~~~~~~~~~~~~~~~~~0-0
Hit 3~~~~~~~~~~~~~~~~~~~~~~~~~~~~~0-0
Hit 2~~~~~~~~~~~~~~~~~~~~~~~~~~~~~0-0
Hit 1~~~~~~~~~~~~~~~~~~~~~~~~~~~~~0-0
Shield parry~~~~~~~~~~~~~~~~~~~~~~~~~~~~~0-0
Staff parry~~~~~~~~~~~~~~~~~~~~~~~~~~~~~0-0
Two hand parry~~~~~~~~~~~~~~~~~~~~~~~~~~~~~0-0
Right hand parry~~~~~~~~~~~~~~~~~~~~~~~~~~~~~0-0
Default parry~~~~~~~~~~~~~~~~~~~~~~~~~~~~~0-0
Staff attack~~~~~~~~~~~~~~~~~~~~~~~~~~~~~0-0
Two hand attack~~~~~~~~~~~~~~~~~~~~~~~~~~~~~0-0
Right hand attack~~~~~~~~~~~~~~~~~~~~~~~~~~~~~0-0
Default attack~~~~~~~~~~~~~~~~~~~~~~~~~~~~~0-0
Ride run~~~~~~~~~~~~~~~~~~~~~~~~~~~~~0-0
Ride walk~~~~~~~~~~~~~~~~~~~~~~~~~~~~~0-0
Ride idle~~~~~~~~~~~~~~~~~~~~~~~~~~~~~0-0
Swim fast~~~~~~~~~~~~~~~~~~~~~~~~~~~~~0-0
Swim slow~~~~~~~~~~~~~~~~~~~~~~~~~~~~~0-0
Swim idle~~~~~~~~~~~~~~~~~~~~~~~~~~~~~0-0
Run~~~~~~~~~~~~~~~~~~~~~~~~~~~~~0-0
Walk~~~~~~~~~~~~~~~~~~~~~~~~~~~~~0-0


